<?xml version="1.0" encoding="utf-8"  standalone="no"?>
<svg 
 width="600" height="480"
 viewBox="0 0 600 480"
 xmlns="http://www.w3.org/2000/svg"
 xmlns:xlink="http://www.w3.org/1999/xlink"
>

<title>Gnuplot</title>
<desc>Produced by GNUPLOT 5.4 patchlevel 1 </desc>

<g id="gnuplot_canvas">

<rect x="0" y="0" width="600" height="480" fill="none"/>
<defs>

	<circle id='gpDot' r='0.5' stroke-width='0.5' stroke='currentColor'/>
	<path id='gpPt0' stroke-width='0.222' stroke='currentColor' d='M-1,0 h2 M0,-1 v2'/>
	<path id='gpPt1' stroke-width='0.222' stroke='currentColor' d='M-1,-1 L1,1 M1,-1 L-1,1'/>
	<path id='gpPt2' stroke-width='0.222' stroke='currentColor' d='M-1,0 L1,0 M0,-1 L0,1 M-1,-1 L1,1 M-1,1 L1,-1'/>
	<rect id='gpPt3' stroke-width='0.222' stroke='currentColor' x='-1' y='-1' width='2' height='2'/>
	<rect id='gpPt4' stroke-width='0.222' stroke='currentColor' fill='currentColor' x='-1' y='-1' width='2' height='2'/>
	<circle id='gpPt5' stroke-width='0.222' stroke='currentColor' cx='0' cy='0' r='1'/>
	<use xlink:href='#gpPt5' id='gpPt6' fill='currentColor' stroke='none'/>
	<path id='gpPt7' stroke-width='0.222' stroke='currentColor' d='M0,-1.33 L-1.33,0.67 L1.33,0.67 z'/>
	<use xlink:href='#gpPt7' id='gpPt8' fill='currentColor' stroke='none'/>
	<use xlink:href='#gpPt7' id='gpPt9' stroke='currentColor' transform='rotate(180)'/>
	<use xlink:href='#gpPt9' id='gpPt10' fill='currentColor' stroke='none'/>
	<use xlink:href='#gpPt3' id='gpPt11' stroke='currentColor' transform='rotate(45)'/>
	<use xlink:href='#gpPt11' id='gpPt12' fill='currentColor' stroke='none'/>
	<path id='gpPt13' stroke-width='0.222' stroke='currentColor' d='M0,1.330 L1.265,0.411 L0.782,-1.067 L-0.782,-1.076 L-1.265,0.411 z'/>
	<use xlink:href='#gpPt13' id='gpPt14' fill='currentColor' stroke='none'/>
	<filter id='textbox' filterUnits='objectBoundingBox' x='0' y='0' height='1' width='1'>
	  <feFlood flood-color='white' flood-opacity='1' result='bgnd'/>
	  <feComposite in='SourceGraphic' in2='bgnd' operator='atop'/>
	</filter>
	<filter id='greybox' filterUnits='objectBoundingBox' x='0' y='0' height='1' width='1'>
	  <feFlood flood-color='lightgrey' flood-opacity='1' result='grey'/>
	  <feComposite in='SourceGraphic' in2='grey' operator='atop'/>
	</filter>
</defs>
<g fill="none" color="white" stroke="currentColor" stroke-width="1.00" stroke-linecap="butt" stroke-linejoin="miter">
</g>
<g fill="none" color="black" stroke="currentColor" stroke-width="1.00" stroke-linecap="butt" stroke-linejoin="miter">
</g>
<g fill="none" color="black" stroke="black" stroke-width="0.50" stroke-linecap="butt" stroke-linejoin="miter">
</g>
<g fill="none" color="gray" stroke="currentColor" stroke-width="0.50" stroke-linecap="butt" stroke-linejoin="miter">
	<path stroke='gray' stroke-dasharray='2,4' class="gridline"  d='M72.53,381.08 L574.82,381.08  '/></g>
<g fill="none" color="gray" stroke="gray" stroke-width="1.00" stroke-linecap="butt" stroke-linejoin="miter">
</g>
<g fill="none" color="black" stroke="currentColor" stroke-width="1.00" stroke-linecap="butt" stroke-linejoin="miter">
	<path stroke='black'  d='M72.53,381.08 L81.53,381.08 M574.82,381.08 L565.82,381.08  '/>	<g transform="translate(64.14,384.98)" stroke="none" fill="black" font-family="Arial" font-size="12.00"  text-anchor="end">
		<text><tspan font-family="Arial" > 0.5</tspan></text>
	</g>
</g>
<g fill="none" color="black" stroke="currentColor" stroke-width="1.00" stroke-linecap="butt" stroke-linejoin="miter">
</g>
<g fill="none" color="black" stroke="black" stroke-width="0.50" stroke-linecap="butt" stroke-linejoin="miter">
</g>
<g fill="none" color="gray" stroke="currentColor" stroke-width="0.50" stroke-linecap="butt" stroke-linejoin="miter">
	<path stroke='gray' stroke-dasharray='2,4' class="gridline"  d='M72.53,315.67 L574.82,315.67  '/></g>
<g fill="none" color="gray" stroke="gray" stroke-width="1.00" stroke-linecap="butt" stroke-linejoin="miter">
</g>
<g fill="none" color="black" stroke="currentColor" stroke-width="1.00" stroke-linecap="butt" stroke-linejoin="miter">
	<path stroke='black'  d='M72.53,315.67 L81.53,315.67 M574.82,315.67 L565.82,315.67  '/>	<g transform="translate(64.14,319.57)" stroke="none" fill="black" font-family="Arial" font-size="12.00"  text-anchor="end">
		<text><tspan font-family="Arial" > 0.6</tspan></text>
	</g>
</g>
<g fill="none" color="black" stroke="currentColor" stroke-width="1.00" stroke-linecap="butt" stroke-linejoin="miter">
</g>
<g fill="none" color="black" stroke="black" stroke-width="0.50" stroke-linecap="butt" stroke-linejoin="miter">
</g>
<g fill="none" color="gray" stroke="currentColor" stroke-width="0.50" stroke-linecap="butt" stroke-linejoin="miter">
	<path stroke='gray' stroke-dasharray='2,4' class="gridline"  d='M72.53,250.25 L574.82,250.25  '/></g>
<g fill="none" color="gray" stroke="gray" stroke-width="1.00" stroke-linecap="butt" stroke-linejoin="miter">
</g>
<g fill="none" color="black" stroke="currentColor" stroke-width="1.00" stroke-linecap="butt" stroke-linejoin="miter">
	<path stroke='black'  d='M72.53,250.25 L81.53,250.25 M574.82,250.25 L565.82,250.25  '/>	<g transform="translate(64.14,254.15)" stroke="none" fill="black" font-family="Arial" font-size="12.00"  text-anchor="end">
		<text><tspan font-family="Arial" > 0.7</tspan></text>
	</g>
</g>
<g fill="none" color="black" stroke="currentColor" stroke-width="1.00" stroke-linecap="butt" stroke-linejoin="miter">
</g>
<g fill="none" color="black" stroke="black" stroke-width="0.50" stroke-linecap="butt" stroke-linejoin="miter">
</g>
<g fill="none" color="gray" stroke="currentColor" stroke-width="0.50" stroke-linecap="butt" stroke-linejoin="miter">
	<path stroke='gray' stroke-dasharray='2,4' class="gridline"  d='M72.53,184.84 L574.82,184.84  '/></g>
<g fill="none" color="gray" stroke="gray" stroke-width="1.00" stroke-linecap="butt" stroke-linejoin="miter">
</g>
<g fill="none" color="black" stroke="currentColor" stroke-width="1.00" stroke-linecap="butt" stroke-linejoin="miter">
	<path stroke='black'  d='M72.53,184.84 L81.53,184.84 M574.82,184.84 L565.82,184.84  '/>	<g transform="translate(64.14,188.74)" stroke="none" fill="black" font-family="Arial" font-size="12.00"  text-anchor="end">
		<text><tspan font-family="Arial" > 0.8</tspan></text>
	</g>
</g>
<g fill="none" color="black" stroke="currentColor" stroke-width="1.00" stroke-linecap="butt" stroke-linejoin="miter">
</g>
<g fill="none" color="black" stroke="black" stroke-width="0.50" stroke-linecap="butt" stroke-linejoin="miter">
</g>
<g fill="none" color="gray" stroke="currentColor" stroke-width="0.50" stroke-linecap="butt" stroke-linejoin="miter">
	<path stroke='gray' stroke-dasharray='2,4' class="gridline"  d='M72.53,119.42 L574.82,119.42  '/></g>
<g fill="none" color="gray" stroke="gray" stroke-width="1.00" stroke-linecap="butt" stroke-linejoin="miter">
</g>
<g fill="none" color="black" stroke="currentColor" stroke-width="1.00" stroke-linecap="butt" stroke-linejoin="miter">
	<path stroke='black'  d='M72.53,119.42 L81.53,119.42 M574.82,119.42 L565.82,119.42  '/>	<g transform="translate(64.14,123.32)" stroke="none" fill="black" font-family="Arial" font-size="12.00"  text-anchor="end">
		<text><tspan font-family="Arial" > 0.9</tspan></text>
	</g>
</g>
<g fill="none" color="black" stroke="currentColor" stroke-width="1.00" stroke-linecap="butt" stroke-linejoin="miter">
</g>
<g fill="none" color="black" stroke="black" stroke-width="0.50" stroke-linecap="butt" stroke-linejoin="miter">
</g>
<g fill="none" color="gray" stroke="currentColor" stroke-width="0.50" stroke-linecap="butt" stroke-linejoin="miter">
	<path stroke='gray' stroke-dasharray='2,4' class="gridline"  d='M72.53,54.01 L574.82,54.01  '/></g>
<g fill="none" color="gray" stroke="gray" stroke-width="1.00" stroke-linecap="butt" stroke-linejoin="miter">
</g>
<g fill="none" color="black" stroke="currentColor" stroke-width="1.00" stroke-linecap="butt" stroke-linejoin="miter">
	<path stroke='black'  d='M72.53,54.01 L81.53,54.01 M574.82,54.01 L565.82,54.01  '/>	<g transform="translate(64.14,57.91)" stroke="none" fill="black" font-family="Arial" font-size="12.00"  text-anchor="end">
		<text><tspan font-family="Arial" > 1</tspan></text>
	</g>
</g>
<g fill="none" color="black" stroke="currentColor" stroke-width="1.00" stroke-linecap="butt" stroke-linejoin="miter">
	<path stroke='black'  d='M98.05,381.08 M98.05,54.01  '/>	<g transform="translate(95.29,392.23) rotate(45)" stroke="none" fill="black" font-family="Arial" font-size="12.00"  text-anchor="start">
		<text><tspan font-family="Arial" >base</tspan></text>
	</g>
</g>
<g fill="none" color="black" stroke="currentColor" stroke-width="1.00" stroke-linecap="butt" stroke-linejoin="miter">
	<path stroke='black'  d='M134.94,381.08 M134.94,54.01  '/>	<g transform="translate(132.18,392.23) rotate(45)" stroke="none" fill="black" font-family="Arial" font-size="12.00"  text-anchor="start">
		<text><tspan font-family="Arial" >containers</tspan></text>
	</g>
</g>
<g fill="none" color="black" stroke="currentColor" stroke-width="1.00" stroke-linecap="butt" stroke-linejoin="miter">
	<path stroke='black'  d='M251.16,381.08 M251.16,54.01  '/>	<g transform="translate(248.40,392.23) rotate(45)" stroke="none" fill="black" font-family="Arial" font-size="12.00"  text-anchor="start">
		<text><tspan font-family="Arial" >coq</tspan></text>
	</g>
</g>
<g fill="none" color="black" stroke="currentColor" stroke-width="1.00" stroke-linecap="butt" stroke-linejoin="miter">
	<path stroke='black'  d='M443.69,381.08 M443.69,54.01  '/>	<g transform="translate(440.93,392.23) rotate(45)" stroke="none" fill="black" font-family="Arial" font-size="12.00"  text-anchor="start">
		<text><tspan font-family="Arial" >dune</tspan></text>
	</g>
</g>
<g fill="none" color="black" stroke="currentColor" stroke-width="1.00" stroke-linecap="butt" stroke-linejoin="miter">
	<path stroke='black'  d='M541.47,381.08 M541.47,54.01  '/>	<g transform="translate(538.71,392.23) rotate(45)" stroke="none" fill="black" font-family="Arial" font-size="12.00"  text-anchor="start">
		<text><tspan font-family="Arial" >ocamlbuild</tspan></text>
	</g>
</g>
<g fill="none" color="black" stroke="currentColor" stroke-width="1.00" stroke-linecap="butt" stroke-linejoin="miter">
	<path stroke='black'  d='M563.70,381.08 M563.70,54.01  '/>	<g transform="translate(560.94,392.23) rotate(45)" stroke="none" fill="black" font-family="Arial" font-size="12.00"  text-anchor="start">
		<text><tspan font-family="Arial" >topkg</tspan></text>
	</g>
</g>
<g fill="none" color="black" stroke="currentColor" stroke-width="1.00" stroke-linecap="butt" stroke-linejoin="miter">
</g>
<g fill="none" color="black" stroke="black" stroke-width="0.50" stroke-linecap="butt" stroke-linejoin="miter">
</g>
<g fill="none" color="gray" stroke="currentColor" stroke-width="0.50" stroke-linecap="butt" stroke-linejoin="miter">
	<path stroke='gray' stroke-dasharray='2,4' class="gridline"  d='M123.57,381.08 L123.57,54.01  '/></g>
<g fill="none" color="gray" stroke="gray" stroke-width="1.00" stroke-linecap="butt" stroke-linejoin="miter">
</g>
<g fill="none" color="black" stroke="currentColor" stroke-width="1.00" stroke-linecap="butt" stroke-linejoin="miter">
	<g transform="translate(123.57,39.91)" stroke="none" fill="black" font-family="Arial" font-size="12.00"  text-anchor="middle">
		<text></text>
	</g>
</g>
<g fill="none" color="black" stroke="currentColor" stroke-width="1.00" stroke-linecap="butt" stroke-linejoin="miter">
</g>
<g fill="none" color="black" stroke="black" stroke-width="0.50" stroke-linecap="butt" stroke-linejoin="miter">
</g>
<g fill="none" color="gray" stroke="currentColor" stroke-width="0.50" stroke-linecap="butt" stroke-linejoin="miter">
	<path stroke='gray' stroke-dasharray='2,4' class="gridline"  d='M146.05,381.08 L146.05,54.01  '/></g>
<g fill="none" color="gray" stroke="gray" stroke-width="1.00" stroke-linecap="butt" stroke-linejoin="miter">
</g>
<g fill="none" color="black" stroke="currentColor" stroke-width="1.00" stroke-linecap="butt" stroke-linejoin="miter">
	<g transform="translate(146.05,39.91)" stroke="none" fill="black" font-family="Arial" font-size="12.00"  text-anchor="middle">
		<text></text>
	</g>
</g>
<g fill="none" color="black" stroke="currentColor" stroke-width="1.00" stroke-linecap="butt" stroke-linejoin="miter">
</g>
<g fill="none" color="black" stroke="black" stroke-width="0.50" stroke-linecap="butt" stroke-linejoin="miter">
</g>
<g fill="none" color="gray" stroke="currentColor" stroke-width="0.50" stroke-linecap="butt" stroke-linejoin="miter">
	<path stroke='gray' stroke-dasharray='2,4' class="gridline"  d='M356.27,381.08 L356.27,54.01  '/></g>
<g fill="none" color="gray" stroke="gray" stroke-width="1.00" stroke-linecap="butt" stroke-linejoin="miter">
</g>
<g fill="none" color="black" stroke="currentColor" stroke-width="1.00" stroke-linecap="butt" stroke-linejoin="miter">
	<g transform="translate(356.27,39.91)" stroke="none" fill="black" font-family="Arial" font-size="12.00"  text-anchor="middle">
		<text></text>
	</g>
</g>
<g fill="none" color="black" stroke="currentColor" stroke-width="1.00" stroke-linecap="butt" stroke-linejoin="miter">
</g>
<g fill="none" color="black" stroke="black" stroke-width="0.50" stroke-linecap="butt" stroke-linejoin="miter">
</g>
<g fill="none" color="gray" stroke="currentColor" stroke-width="0.50" stroke-linecap="butt" stroke-linejoin="miter">
	<path stroke='gray' stroke-dasharray='2,4' class="gridline"  d='M531.11,381.08 L531.11,63.01 L531.11,54.01  '/></g>
<g fill="none" color="gray" stroke="gray" stroke-width="1.00" stroke-linecap="butt" stroke-linejoin="miter">
</g>
<g fill="none" color="black" stroke="currentColor" stroke-width="1.00" stroke-linecap="butt" stroke-linejoin="miter">
	<g transform="translate(531.11,39.91)" stroke="none" fill="black" font-family="Arial" font-size="12.00"  text-anchor="middle">
		<text></text>
	</g>
</g>
<g fill="none" color="black" stroke="currentColor" stroke-width="1.00" stroke-linecap="butt" stroke-linejoin="miter">
</g>
<g fill="none" color="black" stroke="black" stroke-width="0.50" stroke-linecap="butt" stroke-linejoin="miter">
</g>
<g fill="none" color="gray" stroke="currentColor" stroke-width="0.50" stroke-linecap="butt" stroke-linejoin="miter">
	<path stroke='gray' stroke-dasharray='2,4' class="gridline"  d='M533.64,381.08 L533.64,63.01 L533.64,54.01  '/></g>
<g fill="none" color="gray" stroke="gray" stroke-width="1.00" stroke-linecap="butt" stroke-linejoin="miter">
</g>
<g fill="none" color="black" stroke="currentColor" stroke-width="1.00" stroke-linecap="butt" stroke-linejoin="miter">
	<g transform="translate(533.64,39.91)" stroke="none" fill="black" font-family="Arial" font-size="12.00"  text-anchor="middle">
		<text></text>
	</g>
</g>
<g fill="none" color="black" stroke="currentColor" stroke-width="1.00" stroke-linecap="butt" stroke-linejoin="miter">
</g>
<g fill="none" color="black" stroke="black" stroke-width="0.50" stroke-linecap="butt" stroke-linejoin="miter">
</g>
<g fill="none" color="gray" stroke="currentColor" stroke-width="0.50" stroke-linecap="butt" stroke-linejoin="miter">
	<path stroke='gray' stroke-dasharray='2,4' class="gridline"  d='M549.30,381.08 L549.30,63.01 L549.30,54.01  '/></g>
<g fill="none" color="gray" stroke="gray" stroke-width="1.00" stroke-linecap="butt" stroke-linejoin="miter">
</g>
<g fill="none" color="black" stroke="currentColor" stroke-width="1.00" stroke-linecap="butt" stroke-linejoin="miter">
	<g transform="translate(549.30,39.91)" stroke="none" fill="black" font-family="Arial" font-size="12.00"  text-anchor="middle">
		<text></text>
	</g>
</g>
<g fill="none" color="black" stroke="currentColor" stroke-width="1.00" stroke-linecap="butt" stroke-linejoin="miter">
</g>
<g fill="none" color="black" stroke="black" stroke-width="0.50" stroke-linecap="butt" stroke-linejoin="miter">
</g>
<g fill="none" color="gray" stroke="currentColor" stroke-width="0.50" stroke-linecap="butt" stroke-linejoin="miter">
	<path stroke='gray' stroke-dasharray='2,4' class="gridline"  d='M552.59,381.08 L552.59,63.01 L552.59,54.01  '/></g>
<g fill="none" color="gray" stroke="gray" stroke-width="1.00" stroke-linecap="butt" stroke-linejoin="miter">
</g>
<g fill="none" color="black" stroke="currentColor" stroke-width="1.00" stroke-linecap="butt" stroke-linejoin="miter">
	<g transform="translate(552.59,39.91)" stroke="none" fill="black" font-family="Arial" font-size="12.00"  text-anchor="middle">
		<text></text>
	</g>
</g>
<g fill="none" color="black" stroke="currentColor" stroke-width="1.00" stroke-linecap="butt" stroke-linejoin="miter">
</g>
<g fill="none" color="black" stroke="black" stroke-width="0.50" stroke-linecap="butt" stroke-linejoin="miter">
</g>
<g fill="none" color="gray" stroke="currentColor" stroke-width="0.50" stroke-linecap="butt" stroke-linejoin="miter">
	<path stroke='gray' stroke-dasharray='2,4' class="gridline"  d='M558.14,381.08 L558.14,63.01 L558.14,54.01  '/></g>
<g fill="none" color="gray" stroke="gray" stroke-width="1.00" stroke-linecap="butt" stroke-linejoin="miter">
</g>
<g fill="none" color="black" stroke="currentColor" stroke-width="1.00" stroke-linecap="butt" stroke-linejoin="miter">
	<g transform="translate(558.14,39.91)" stroke="none" fill="black" font-family="Arial" font-size="12.00"  text-anchor="middle">
		<text></text>
	</g>
</g>
<g fill="none" color="black" stroke="currentColor" stroke-width="1.00" stroke-linecap="butt" stroke-linejoin="miter">
</g>
<g fill="none" color="black" stroke="black" stroke-width="0.50" stroke-linecap="butt" stroke-linejoin="miter">
</g>
<g fill="none" color="gray" stroke="currentColor" stroke-width="0.50" stroke-linecap="butt" stroke-linejoin="miter">
	<path stroke='gray' stroke-dasharray='2,4' class="gridline"  d='M559.66,381.08 L559.66,63.01 L559.66,54.01  '/></g>
<g fill="none" color="gray" stroke="gray" stroke-width="1.00" stroke-linecap="butt" stroke-linejoin="miter">
</g>
<g fill="none" color="black" stroke="currentColor" stroke-width="1.00" stroke-linecap="butt" stroke-linejoin="miter">
	<g transform="translate(559.66,39.91)" stroke="none" fill="black" font-family="Arial" font-size="12.00"  text-anchor="middle">
		<text></text>
	</g>
</g>
<g fill="none" color="black" stroke="currentColor" stroke-width="1.00" stroke-linecap="butt" stroke-linejoin="miter">
</g>
<g fill="none" color="black" stroke="black" stroke-width="0.50" stroke-linecap="butt" stroke-linejoin="miter">
</g>
<g fill="none" color="gray" stroke="currentColor" stroke-width="0.50" stroke-linecap="butt" stroke-linejoin="miter">
	<path stroke='gray' stroke-dasharray='2,4' class="gridline"  d='M567.49,381.08 L567.49,54.01  '/></g>
<g fill="none" color="gray" stroke="gray" stroke-width="1.00" stroke-linecap="butt" stroke-linejoin="miter">
</g>
<g fill="none" color="black" stroke="currentColor" stroke-width="1.00" stroke-linecap="butt" stroke-linejoin="miter">
	<g transform="translate(567.49,39.91)" stroke="none" fill="black" font-family="Arial" font-size="12.00"  text-anchor="middle">
		<text></text>
	</g>
</g>
<g fill="none" color="black" stroke="currentColor" stroke-width="1.00" stroke-linecap="butt" stroke-linejoin="miter">
</g>
<g fill="none" color="black" stroke="black" stroke-width="0.50" stroke-linecap="butt" stroke-linejoin="miter">
</g>
<g fill="none" color="gray" stroke="currentColor" stroke-width="0.50" stroke-linecap="butt" stroke-linejoin="miter">
	<path stroke='gray' stroke-dasharray='2,4' class="gridline"  d='M572.80,381.08 L572.80,54.01  '/></g>
<g fill="none" color="gray" stroke="gray" stroke-width="1.00" stroke-linecap="butt" stroke-linejoin="miter">
</g>
<g fill="none" color="black" stroke="currentColor" stroke-width="1.00" stroke-linecap="butt" stroke-linejoin="miter">
	<g transform="translate(572.80,39.91)" stroke="none" fill="black" font-family="Arial" font-size="12.00"  text-anchor="middle">
		<text></text>
	</g>
</g>
<g fill="none" color="black" stroke="currentColor" stroke-width="1.00" stroke-linecap="butt" stroke-linejoin="miter">
</g>
<g fill="none" color="black" stroke="black" stroke-width="0.50" stroke-linecap="butt" stroke-linejoin="miter">
</g>
<g fill="none" color="gray" stroke="currentColor" stroke-width="0.50" stroke-linecap="butt" stroke-linejoin="miter">
	<path stroke='gray' stroke-dasharray='2,4' class="gridline"  d='M573.30,381.08 L573.30,54.01  '/></g>
<g fill="none" color="gray" stroke="gray" stroke-width="1.00" stroke-linecap="butt" stroke-linejoin="miter">
</g>
<g fill="none" color="black" stroke="currentColor" stroke-width="1.00" stroke-linecap="butt" stroke-linejoin="miter">
	<g transform="translate(573.30,39.91)" stroke="none" fill="black" font-family="Arial" font-size="12.00"  text-anchor="middle">
		<text></text>
	</g>
</g>
<g fill="none" color="black" stroke="currentColor" stroke-width="1.00" stroke-linecap="butt" stroke-linejoin="miter">
</g>
<g fill="none" color="black" stroke="black" stroke-width="0.50" stroke-linecap="butt" stroke-linejoin="miter">
</g>
<g fill="none" color="gray" stroke="currentColor" stroke-width="0.50" stroke-linecap="butt" stroke-linejoin="miter">
	<path stroke='gray' stroke-dasharray='2,4' class="gridline"  d='M574.82,381.08 L574.82,54.01  '/></g>
<g fill="none" color="gray" stroke="gray" stroke-width="1.00" stroke-linecap="butt" stroke-linejoin="miter">
</g>
<g fill="none" color="black" stroke="currentColor" stroke-width="1.00" stroke-linecap="butt" stroke-linejoin="miter">
	<g transform="translate(574.82,39.91)" stroke="none" fill="black" font-family="Arial" font-size="12.00"  text-anchor="middle">
		<text></text>
	</g>
</g>
<g fill="none" color="black" stroke="currentColor" stroke-width="1.00" stroke-linecap="butt" stroke-linejoin="miter">
</g>
<g fill="none" color="black" stroke="currentColor" stroke-width="1.00" stroke-linecap="butt" stroke-linejoin="miter">
	<path stroke='black'  d='M72.53,54.01 L72.53,381.08 L574.82,381.08 L574.82,54.01 L72.53,54.01 Z  '/></g>
<g fill="none" color="black" stroke="currentColor" stroke-width="1.00" stroke-linecap="butt" stroke-linejoin="miter">
	<g transform="translate(19.18,217.55) rotate(270)" stroke="none" fill="black" font-family="Arial" font-size="12.00"  text-anchor="middle">
		<text><tspan font-family="Arial" >after/before</tspan></text>
	</g>
</g>
<g fill="none" color="black" stroke="currentColor" stroke-width="1.00" stroke-linecap="butt" stroke-linejoin="miter">
	<g transform="translate(323.67,471.30)" stroke="none" fill="black" font-family="Arial" font-size="12.00"  text-anchor="middle">
		<text><tspan font-family="Arial" >files</tspan></text>
	</g>
</g>
<g fill="none" color="black" stroke="currentColor" stroke-width="1.00" stroke-linecap="butt" stroke-linejoin="miter">
</g>
	<g id="gnuplot_plot_1" ><title>gnuplot_plot_1</title>
<g fill="none" color="black" stroke="currentColor" stroke-width="1.00" stroke-linecap="butt" stroke-linejoin="miter">
	<use xlink:href='#gpDot' x='74.05' y='317.78' color='rgb(148,   0, 211)'/>

	<use xlink:href='#gpDot' x='74.30' y='348.37' color='rgb(148,   0, 211)'/>

	<use xlink:href='#gpDot' x='74.55' y='307.23' color='rgb(148,   0, 211)'/>

	<use xlink:href='#gpDot' x='75.06' y='334.36' color='rgb(148,   0, 211)'/>

	<use xlink:href='#gpDot' x='76.83' y='301.52' color='rgb(148,   0, 211)'/>

	<use xlink:href='#gpDot' x='81.63' y='381.08' color='rgb(148,   0, 211)'/>

	<use xlink:href='#gpDot' x='84.41' y='374.12' color='rgb(148,   0, 211)'/>

	<use xlink:href='#gpDot' x='85.16' y='330.76' color='rgb(148,   0, 211)'/>

	<use xlink:href='#gpDot' x='87.18' y='381.08' color='rgb(148,   0, 211)'/>

	<use xlink:href='#gpDot' x='89.71' y='372.24' color='rgb(148,   0, 211)'/>

	<use xlink:href='#gpDot' x='89.96' y='281.54' color='rgb(148,   0, 211)'/>

	<use xlink:href='#gpDot' x='90.22' y='272.06' color='rgb(148,   0, 211)'/>

	<use xlink:href='#gpDot' x='91.73' y='291.88' color='rgb(148,   0, 211)'/>

	<use xlink:href='#gpDot' x='91.98' y='302.58' color='rgb(148,   0, 211)'/>

	<use xlink:href='#gpDot' x='92.49' y='381.08' color='rgb(148,   0, 211)'/>

	<use xlink:href='#gpDot' x='95.02' y='308.40' color='rgb(148,   0, 211)'/>

	<use xlink:href='#gpDot' x='96.03' y='334.36' color='rgb(148,   0, 211)'/>

	<use xlink:href='#gpDot' x='97.80' y='322.37' color='rgb(148,   0, 211)'/>

	<use xlink:href='#gpDot' x='100.83' y='353.82' color='rgb(148,   0, 211)'/>

	<use xlink:href='#gpDot' x='101.84' y='202.12' color='rgb(148,   0, 211)'/>

	<use xlink:href='#gpDot' x='102.09' y='183.06' color='rgb(148,   0, 211)'/>

	<use xlink:href='#gpDot' x='103.35' y='357.72' color='rgb(148,   0, 211)'/>

	<use xlink:href='#gpDot' x='105.12' y='373.10' color='rgb(148,   0, 211)'/>

	<use xlink:href='#gpDot' x='105.38' y='315.67' color='rgb(148,   0, 211)'/>

	<use xlink:href='#gpDot' x='106.13' y='357.15' color='rgb(148,   0, 211)'/>

	<use xlink:href='#gpDot' x='106.39' y='291.88' color='rgb(148,   0, 211)'/>

	<use xlink:href='#gpDot' x='110.18' y='381.08' color='rgb(148,   0, 211)'/>

	<use xlink:href='#gpDot' x='112.20' y='353.82' color='rgb(148,   0, 211)'/>

	<use xlink:href='#gpDot' x='112.70' y='252.23' color='rgb(148,   0, 211)'/>

	<use xlink:href='#gpDot' x='112.96' y='179.81' color='rgb(148,   0, 211)'/>

	<use xlink:href='#gpDot' x='116.24' y='381.08' color='rgb(148,   0, 211)'/>

	<use xlink:href='#gpDot' x='118.26' y='341.83' color='rgb(148,   0, 211)'/>

	<use xlink:href='#gpDot' x='120.79' y='381.08' color='rgb(148,   0, 211)'/>

	<use xlink:href='#gpDot' x='154.14' y='361.84' color='rgb(148,   0, 211)'/>

	<use xlink:href='#gpDot' x='161.97' y='376.83' color='rgb(148,   0, 211)'/>

	<use xlink:href='#gpDot' x='162.48' y='315.67' color='rgb(148,   0, 211)'/>

	<use xlink:href='#gpDot' x='162.73' y='308.40' color='rgb(148,   0, 211)'/>

	<use xlink:href='#gpDot' x='162.98' y='371.73' color='rgb(148,   0, 211)'/>

	<use xlink:href='#gpDot' x='163.49' y='302.34' color='rgb(148,   0, 211)'/>

	<use xlink:href='#gpDot' x='165.00' y='381.08' color='rgb(148,   0, 211)'/>

	<use xlink:href='#gpDot' x='165.51' y='299.31' color='rgb(148,   0, 211)'/>

	<use xlink:href='#gpDot' x='168.04' y='381.08' color='rgb(148,   0, 211)'/>

	<use xlink:href='#gpDot' x='169.05' y='365.50' color='rgb(148,   0, 211)'/>

	<use xlink:href='#gpDot' x='173.59' y='336.19' color='rgb(148,   0, 211)'/>

	<use xlink:href='#gpDot' x='181.68' y='381.08' color='rgb(148,   0, 211)'/>

	<use xlink:href='#gpDot' x='185.47' y='381.08' color='rgb(148,   0, 211)'/>

	<use xlink:href='#gpDot' x='194.82' y='282.20' color='rgb(148,   0, 211)'/>

	<use xlink:href='#gpDot' x='206.44' y='361.84' color='rgb(148,   0, 211)'/>

	<use xlink:href='#gpDot' x='219.33' y='323.36' color='rgb(148,   0, 211)'/>

	<use xlink:href='#gpDot' x='250.15' y='378.69' color='rgb(148,   0, 211)'/>

	<use xlink:href='#gpDot' x='251.16' y='334.36' color='rgb(148,   0, 211)'/>

	<use xlink:href='#gpDot' x='251.41' y='255.28' color='rgb(148,   0, 211)'/>

	<use xlink:href='#gpDot' x='252.42' y='381.08' color='rgb(148,   0, 211)'/>

	<use xlink:href='#gpDot' x='268.09' y='338.42' color='rgb(148,   0, 211)'/>

	<use xlink:href='#gpDot' x='289.57' y='359.28' color='rgb(148,   0, 211)'/>

	<use xlink:href='#gpDot' x='356.52' y='322.83' color='rgb(148,   0, 211)'/>

	<use xlink:href='#gpDot' x='357.28' y='260.58' color='rgb(148,   0, 211)'/>

	<use xlink:href='#gpDot' x='358.79' y='217.54' color='rgb(148,   0, 211)'/>

	<use xlink:href='#gpDot' x='359.30' y='381.08' color='rgb(148,   0, 211)'/>

	<use xlink:href='#gpDot' x='359.55' y='381.08' color='rgb(148,   0, 211)'/>

	<use xlink:href='#gpDot' x='360.06' y='217.54' color='rgb(148,   0, 211)'/>

	<use xlink:href='#gpDot' x='362.08' y='381.08' color='rgb(148,   0, 211)'/>

	<use xlink:href='#gpDot' x='364.10' y='381.08' color='rgb(148,   0, 211)'/>

	<use xlink:href='#gpDot' x='366.37' y='184.84' color='rgb(148,   0, 211)'/>

	<use xlink:href='#gpDot' x='367.39' y='228.45' color='rgb(148,   0, 211)'/>

	<use xlink:href='#gpDot' x='367.89' y='272.06' color='rgb(148,   0, 211)'/>

	<use xlink:href='#gpDot' x='368.40' y='272.06' color='rgb(148,   0, 211)'/>

	<use xlink:href='#gpDot' x='368.90' y='326.57' color='rgb(148,   0, 211)'/>

	<use xlink:href='#gpDot' x='369.66' y='374.67' color='rgb(148,   0, 211)'/>

	<use xlink:href='#gpDot' x='369.91' y='291.88' color='rgb(148,   0, 211)'/>

	<use xlink:href='#gpDot' x='370.42' y='326.57' color='rgb(148,   0, 211)'/>

	<use xlink:href='#gpDot' x='370.67' y='299.31' color='rgb(148,   0, 211)'/>

	<use xlink:href='#gpDot' x='370.92' y='184.84' color='rgb(148,   0, 211)'/>

	<use xlink:href='#gpDot' x='371.43' y='119.42' color='rgb(148,   0, 211)'/>

	<use xlink:href='#gpDot' x='371.93' y='272.06' color='rgb(148,   0, 211)'/>

	<use xlink:href='#gpDot' x='372.19' y='381.08' color='rgb(148,   0, 211)'/>

	<use xlink:href='#gpDot' x='372.69' y='163.03' color='rgb(148,   0, 211)'/>

	<use xlink:href='#gpDot' x='372.94' y='381.08' color='rgb(148,   0, 211)'/>

	<use xlink:href='#gpDot' x='373.20' y='135.78' color='rgb(148,   0, 211)'/>

	<use xlink:href='#gpDot' x='373.70' y='272.06' color='rgb(148,   0, 211)'/>

	<use xlink:href='#gpDot' x='374.21' y='184.84' color='rgb(148,   0, 211)'/>

	<use xlink:href='#gpDot' x='374.71' y='299.31' color='rgb(148,   0, 211)'/>

	<use xlink:href='#gpDot' x='375.22' y='272.06' color='rgb(148,   0, 211)'/>

	<use xlink:href='#gpDot' x='375.72' y='217.54' color='rgb(148,   0, 211)'/>

	<use xlink:href='#gpDot' x='376.23' y='147.46' color='rgb(148,   0, 211)'/>

	<use xlink:href='#gpDot' x='376.73' y='147.46' color='rgb(148,   0, 211)'/>

	<use xlink:href='#gpDot' x='377.24' y='272.06' color='rgb(148,   0, 211)'/>

	<use xlink:href='#gpDot' x='377.74' y='315.67' color='rgb(148,   0, 211)'/>

	<use xlink:href='#gpDot' x='378.25' y='272.06' color='rgb(148,   0, 211)'/>

	<use xlink:href='#gpDot' x='378.76' y='163.03' color='rgb(148,   0, 211)'/>

	<use xlink:href='#gpDot' x='379.26' y='184.84' color='rgb(148,   0, 211)'/>

	<use xlink:href='#gpDot' x='379.77' y='272.06' color='rgb(148,   0, 211)'/>

	<use xlink:href='#gpDot' x='380.27' y='272.06' color='rgb(148,   0, 211)'/>

	<use xlink:href='#gpDot' x='380.78' y='381.08' color='rgb(148,   0, 211)'/>

	<use xlink:href='#gpDot' x='381.79' y='272.06' color='rgb(148,   0, 211)'/>

	<use xlink:href='#gpDot' x='382.29' y='305.60' color='rgb(148,   0, 211)'/>

	<use xlink:href='#gpDot' x='382.80' y='147.46' color='rgb(148,   0, 211)'/>

	<use xlink:href='#gpDot' x='383.30' y='217.54' color='rgb(148,   0, 211)'/>

	<use xlink:href='#gpDot' x='383.81' y='217.54' color='rgb(148,   0, 211)'/>

	<use xlink:href='#gpDot' x='384.31' y='381.08' color='rgb(148,   0, 211)'/>

	<use xlink:href='#gpDot' x='384.82' y='272.06' color='rgb(148,   0, 211)'/>

	<use xlink:href='#gpDot' x='385.32' y='381.08' color='rgb(148,   0, 211)'/>

	<use xlink:href='#gpDot' x='385.83' y='381.08' color='rgb(148,   0, 211)'/>

	<use xlink:href='#gpDot' x='386.33' y='272.06' color='rgb(148,   0, 211)'/>

	<use xlink:href='#gpDot' x='386.84' y='381.08' color='rgb(148,   0, 211)'/>

	<use xlink:href='#gpDot' x='387.35' y='272.06' color='rgb(148,   0, 211)'/>

	<use xlink:href='#gpDot' x='387.85' y='126.69' color='rgb(148,   0, 211)'/>

	<use xlink:href='#gpDot' x='388.36' y='147.46' color='rgb(148,   0, 211)'/>

	<use xlink:href='#gpDot' x='388.86' y='381.08' color='rgb(148,   0, 211)'/>

	<use xlink:href='#gpDot' x='389.37' y='381.08' color='rgb(148,   0, 211)'/>

	<use xlink:href='#gpDot' x='389.87' y='163.03' color='rgb(148,   0, 211)'/>

	<use xlink:href='#gpDot' x='390.38' y='199.37' color='rgb(148,   0, 211)'/>

	<use xlink:href='#gpDot' x='390.88' y='381.08' color='rgb(148,   0, 211)'/>

	<use xlink:href='#gpDot' x='391.39' y='217.54' color='rgb(148,   0, 211)'/>

	<use xlink:href='#gpDot' x='392.15' y='184.84' color='rgb(148,   0, 211)'/>

	<use xlink:href='#gpDot' x='392.65' y='184.84' color='rgb(148,   0, 211)'/>

	<use xlink:href='#gpDot' x='392.90' y='369.80' color='rgb(148,   0, 211)'/>

	<use xlink:href='#gpDot' x='393.16' y='184.84' color='rgb(148,   0, 211)'/>

	<use xlink:href='#gpDot' x='393.66' y='272.06' color='rgb(148,   0, 211)'/>

	<use xlink:href='#gpDot' x='394.17' y='217.54' color='rgb(148,   0, 211)'/>

	<use xlink:href='#gpDot' x='394.67' y='54.01' color='rgb(148,   0, 211)'/>

	<use xlink:href='#gpDot' x='396.19' y='381.08' color='rgb(148,   0, 211)'/>

	<use xlink:href='#gpDot' x='396.69' y='381.08' color='rgb(148,   0, 211)'/>

	<use xlink:href='#gpDot' x='398.46' y='272.06' color='rgb(148,   0, 211)'/>

	<use xlink:href='#gpDot' x='398.97' y='272.06' color='rgb(148,   0, 211)'/>

	<use xlink:href='#gpDot' x='399.47' y='381.08' color='rgb(148,   0, 211)'/>

	<use xlink:href='#gpDot' x='399.98' y='381.08' color='rgb(148,   0, 211)'/>

	<use xlink:href='#gpDot' x='400.48' y='217.54' color='rgb(148,   0, 211)'/>

	<use xlink:href='#gpDot' x='402.00' y='272.06' color='rgb(148,   0, 211)'/>

	<use xlink:href='#gpDot' x='403.52' y='272.06' color='rgb(148,   0, 211)'/>

	<use xlink:href='#gpDot' x='405.28' y='381.08' color='rgb(148,   0, 211)'/>

	<use xlink:href='#gpDot' x='405.79' y='381.08' color='rgb(148,   0, 211)'/>

	<use xlink:href='#gpDot' x='406.30' y='381.08' color='rgb(148,   0, 211)'/>

	<use xlink:href='#gpDot' x='407.81' y='381.08' color='rgb(148,   0, 211)'/>

	<use xlink:href='#gpDot' x='408.32' y='244.80' color='rgb(148,   0, 211)'/>

	<use xlink:href='#gpDot' x='408.82' y='163.03' color='rgb(148,   0, 211)'/>

	<use xlink:href='#gpDot' x='409.33' y='315.67' color='rgb(148,   0, 211)'/>

	<use xlink:href='#gpDot' x='409.83' y='381.08' color='rgb(148,   0, 211)'/>

	<use xlink:href='#gpDot' x='410.34' y='381.08' color='rgb(148,   0, 211)'/>

	<use xlink:href='#gpDot' x='410.84' y='217.54' color='rgb(148,   0, 211)'/>

	<use xlink:href='#gpDot' x='411.35' y='184.84' color='rgb(148,   0, 211)'/>

	<use xlink:href='#gpDot' x='411.85' y='217.54' color='rgb(148,   0, 211)'/>

	<use xlink:href='#gpDot' x='412.36' y='217.54' color='rgb(148,   0, 211)'/>

	<use xlink:href='#gpDot' x='412.86' y='217.54' color='rgb(148,   0, 211)'/>

	<use xlink:href='#gpDot' x='413.87' y='381.08' color='rgb(148,   0, 211)'/>

	<use xlink:href='#gpDot' x='414.38' y='381.08' color='rgb(148,   0, 211)'/>

	<use xlink:href='#gpDot' x='414.89' y='163.03' color='rgb(148,   0, 211)'/>

	<use xlink:href='#gpDot' x='415.39' y='172.94' color='rgb(148,   0, 211)'/>

	<use xlink:href='#gpDot' x='415.90' y='250.25' color='rgb(148,   0, 211)'/>

	<use xlink:href='#gpDot' x='416.15' y='381.08' color='rgb(148,   0, 211)'/>

	<use xlink:href='#gpDot' x='416.40' y='184.84' color='rgb(148,   0, 211)'/>

	<use xlink:href='#gpDot' x='416.91' y='217.54' color='rgb(148,   0, 211)'/>

	<use xlink:href='#gpDot' x='417.66' y='315.67' color='rgb(148,   0, 211)'/>

	<use xlink:href='#gpDot' x='418.17' y='184.84' color='rgb(148,   0, 211)'/>

	<use xlink:href='#gpDot' x='418.68' y='163.03' color='rgb(148,   0, 211)'/>

	<use xlink:href='#gpDot' x='419.18' y='217.54' color='rgb(148,   0, 211)'/>

	<use xlink:href='#gpDot' x='419.69' y='272.06' color='rgb(148,   0, 211)'/>

	<use xlink:href='#gpDot' x='420.44' y='299.31' color='rgb(148,   0, 211)'/>

	<use xlink:href='#gpDot' x='420.95' y='217.54' color='rgb(148,   0, 211)'/>

	<use xlink:href='#gpDot' x='421.45' y='291.88' color='rgb(148,   0, 211)'/>

	<use xlink:href='#gpDot' x='421.71' y='381.08' color='rgb(148,   0, 211)'/>

	<use xlink:href='#gpDot' x='421.96' y='272.06' color='rgb(148,   0, 211)'/>

	<use xlink:href='#gpDot' x='422.47' y='381.08' color='rgb(148,   0, 211)'/>

	<use xlink:href='#gpDot' x='422.97' y='272.06' color='rgb(148,   0, 211)'/>

	<use xlink:href='#gpDot' x='423.48' y='184.84' color='rgb(148,   0, 211)'/>

	<use xlink:href='#gpDot' x='423.98' y='272.06' color='rgb(148,   0, 211)'/>

	<use xlink:href='#gpDot' x='424.49' y='291.88' color='rgb(148,   0, 211)'/>

	<use xlink:href='#gpDot' x='424.99' y='147.46' color='rgb(148,   0, 211)'/>

	<use xlink:href='#gpDot' x='425.50' y='163.03' color='rgb(148,   0, 211)'/>

	<use xlink:href='#gpDot' x='426.00' y='381.08' color='rgb(148,   0, 211)'/>

	<use xlink:href='#gpDot' x='427.01' y='355.92' color='rgb(148,   0, 211)'/>

	<use xlink:href='#gpDot' x='427.52' y='147.46' color='rgb(148,   0, 211)'/>

	<use xlink:href='#gpDot' x='428.02' y='104.33' color='rgb(148,   0, 211)'/>

	<use xlink:href='#gpDot' x='428.53' y='381.08' color='rgb(148,   0, 211)'/>

	<use xlink:href='#gpDot' x='429.03' y='163.03' color='rgb(148,   0, 211)'/>

	<use xlink:href='#gpDot' x='429.54' y='381.08' color='rgb(148,   0, 211)'/>

	<use xlink:href='#gpDot' x='430.05' y='147.46' color='rgb(148,   0, 211)'/>

	<use xlink:href='#gpDot' x='431.31' y='381.08' color='rgb(148,   0, 211)'/>

	<use xlink:href='#gpDot' x='431.56' y='240.91' color='rgb(148,   0, 211)'/>

	<use xlink:href='#gpDot' x='432.07' y='126.69' color='rgb(148,   0, 211)'/>

	<use xlink:href='#gpDot' x='432.57' y='194.18' color='rgb(148,   0, 211)'/>

	<use xlink:href='#gpDot' x='433.08' y='258.43' color='rgb(148,   0, 211)'/>

	<use xlink:href='#gpDot' x='433.58' y='287.63' color='rgb(148,   0, 211)'/>

	<use xlink:href='#gpDot' x='434.09' y='240.91' color='rgb(148,   0, 211)'/>

	<use xlink:href='#gpDot' x='434.59' y='351.35' color='rgb(148,   0, 211)'/>

	<use xlink:href='#gpDot' x='435.10' y='184.84' color='rgb(148,   0, 211)'/>

	<use xlink:href='#gpDot' x='435.60' y='217.54' color='rgb(148,   0, 211)'/>

	<use xlink:href='#gpDot' x='436.11' y='381.08' color='rgb(148,   0, 211)'/>

	<use xlink:href='#gpDot' x='436.87' y='272.06' color='rgb(148,   0, 211)'/>

	<use xlink:href='#gpDot' x='437.37' y='184.84' color='rgb(148,   0, 211)'/>

	<use xlink:href='#gpDot' x='437.88' y='368.97' color='rgb(148,   0, 211)'/>

	<use xlink:href='#gpDot' x='438.38' y='194.18' color='rgb(148,   0, 211)'/>

	<use xlink:href='#gpDot' x='438.89' y='334.36' color='rgb(148,   0, 211)'/>

	<use xlink:href='#gpDot' x='439.39' y='272.06' color='rgb(148,   0, 211)'/>

	<use xlink:href='#gpDot' x='439.90' y='381.08' color='rgb(148,   0, 211)'/>

	<use xlink:href='#gpDot' x='440.40' y='381.08' color='rgb(148,   0, 211)'/>

	<use xlink:href='#gpDot' x='440.91' y='147.46' color='rgb(148,   0, 211)'/>

	<use xlink:href='#gpDot' x='441.42' y='272.06' color='rgb(148,   0, 211)'/>

	<use xlink:href='#gpDot' x='441.92' y='194.18' color='rgb(148,   0, 211)'/>

	<use xlink:href='#gpDot' x='442.68' y='272.06' color='rgb(148,   0, 211)'/>

	<use xlink:href='#gpDot' x='443.69' y='217.54' color='rgb(148,   0, 211)'/>

	<use xlink:href='#gpDot' x='444.19' y='217.54' color='rgb(148,   0, 211)'/>

	<use xlink:href='#gpDot' x='444.70' y='217.54' color='rgb(148,   0, 211)'/>

	<use xlink:href='#gpDot' x='445.20' y='272.06' color='rgb(148,   0, 211)'/>

	<use xlink:href='#gpDot' x='445.96' y='147.46' color='rgb(148,   0, 211)'/>

	<use xlink:href='#gpDot' x='446.47' y='135.78' color='rgb(148,   0, 211)'/>

	<use xlink:href='#gpDot' x='446.97' y='217.54' color='rgb(148,   0, 211)'/>

	<use xlink:href='#gpDot' x='447.48' y='126.69' color='rgb(148,   0, 211)'/>

	<use xlink:href='#gpDot' x='448.24' y='369.40' color='rgb(148,   0, 211)'/>

	<use xlink:href='#gpDot' x='448.99' y='135.78' color='rgb(148,   0, 211)'/>

	<use xlink:href='#gpDot' x='449.50' y='184.84' color='rgb(148,   0, 211)'/>

	<use xlink:href='#gpDot' x='450.01' y='315.67' color='rgb(148,   0, 211)'/>

	<use xlink:href='#gpDot' x='450.51' y='272.06' color='rgb(148,   0, 211)'/>

	<use xlink:href='#gpDot' x='451.02' y='381.08' color='rgb(148,   0, 211)'/>

	<use xlink:href='#gpDot' x='451.77' y='184.84' color='rgb(148,   0, 211)'/>

	<use xlink:href='#gpDot' x='452.28' y='163.03' color='rgb(148,   0, 211)'/>

	<use xlink:href='#gpDot' x='452.78' y='184.84' color='rgb(148,   0, 211)'/>

	<use xlink:href='#gpDot' x='453.29' y='184.84' color='rgb(148,   0, 211)'/>

	<use xlink:href='#gpDot' x='453.80' y='108.52' color='rgb(148,   0, 211)'/>

	<use xlink:href='#gpDot' x='454.05' y='381.08' color='rgb(148,   0, 211)'/>

	<use xlink:href='#gpDot' x='454.55' y='272.06' color='rgb(148,   0, 211)'/>

	<use xlink:href='#gpDot' x='455.06' y='272.06' color='rgb(148,   0, 211)'/>

	<use xlink:href='#gpDot' x='456.32' y='184.84' color='rgb(148,   0, 211)'/>

	<use xlink:href='#gpDot' x='456.83' y='381.08' color='rgb(148,   0, 211)'/>

	<use xlink:href='#gpDot' x='457.33' y='344.74' color='rgb(148,   0, 211)'/>

	<use xlink:href='#gpDot' x='457.84' y='135.78' color='rgb(148,   0, 211)'/>

	<use xlink:href='#gpDot' x='458.34' y='272.06' color='rgb(148,   0, 211)'/>

	<use xlink:href='#gpDot' x='458.85' y='272.06' color='rgb(148,   0, 211)'/>

	<use xlink:href='#gpDot' x='459.35' y='147.46' color='rgb(148,   0, 211)'/>

	<use xlink:href='#gpDot' x='459.86' y='135.78' color='rgb(148,   0, 211)'/>

	<use xlink:href='#gpDot' x='460.36' y='217.54' color='rgb(148,   0, 211)'/>

	<use xlink:href='#gpDot' x='460.87' y='217.54' color='rgb(148,   0, 211)'/>

	<use xlink:href='#gpDot' x='461.38' y='272.06' color='rgb(148,   0, 211)'/>

	<use xlink:href='#gpDot' x='461.63' y='260.58' color='rgb(148,   0, 211)'/>

	<use xlink:href='#gpDot' x='462.13' y='272.06' color='rgb(148,   0, 211)'/>

	<use xlink:href='#gpDot' x='462.64' y='100.73' color='rgb(148,   0, 211)'/>

	<use xlink:href='#gpDot' x='463.65' y='217.54' color='rgb(148,   0, 211)'/>

	<use xlink:href='#gpDot' x='464.15' y='184.84' color='rgb(148,   0, 211)'/>

	<use xlink:href='#gpDot' x='464.91' y='217.54' color='rgb(148,   0, 211)'/>

	<use xlink:href='#gpDot' x='465.17' y='365.50' color='rgb(148,   0, 211)'/>

	<use xlink:href='#gpDot' x='465.92' y='217.54' color='rgb(148,   0, 211)'/>

	<use xlink:href='#gpDot' x='466.43' y='381.08' color='rgb(148,   0, 211)'/>

	<use xlink:href='#gpDot' x='467.69' y='381.08' color='rgb(148,   0, 211)'/>

	<use xlink:href='#gpDot' x='468.20' y='272.06' color='rgb(148,   0, 211)'/>

	<use xlink:href='#gpDot' x='469.46' y='381.08' color='rgb(148,   0, 211)'/>

	<use xlink:href='#gpDot' x='469.97' y='381.08' color='rgb(148,   0, 211)'/>

	<use xlink:href='#gpDot' x='472.74' y='361.06' color='rgb(148,   0, 211)'/>

	<use xlink:href='#gpDot' x='473.00' y='217.54' color='rgb(148,   0, 211)'/>

	<use xlink:href='#gpDot' x='473.25' y='359.28' color='rgb(148,   0, 211)'/>

	<use xlink:href='#gpDot' x='473.50' y='291.88' color='rgb(148,   0, 211)'/>

	<use xlink:href='#gpDot' x='474.26' y='217.54' color='rgb(148,   0, 211)'/>

	<use xlink:href='#gpDot' x='475.78' y='54.01' color='rgb(148,   0, 211)'/>

	<use xlink:href='#gpDot' x='477.80' y='381.08' color='rgb(148,   0, 211)'/>

	<use xlink:href='#gpDot' x='478.56' y='334.36' color='rgb(148,   0, 211)'/>

	<use xlink:href='#gpDot' x='479.57' y='217.54' color='rgb(148,   0, 211)'/>

	<use xlink:href='#gpDot' x='481.59' y='272.06' color='rgb(148,   0, 211)'/>

	<use xlink:href='#gpDot' x='507.11' y='217.54' color='rgb(148,   0, 211)'/>

	<use xlink:href='#gpDot' x='507.61' y='54.01' color='rgb(148,   0, 211)'/>

	<use xlink:href='#gpDot' x='508.12' y='272.06' color='rgb(148,   0, 211)'/>

	<use xlink:href='#gpDot' x='508.62' y='54.01' color='rgb(148,   0, 211)'/>

	<use xlink:href='#gpDot' x='509.13' y='334.36' color='rgb(148,   0, 211)'/>

	<use xlink:href='#gpDot' x='509.38' y='217.54' color='rgb(148,   0, 211)'/>

	<use xlink:href='#gpDot' x='509.89' y='381.08' color='rgb(148,   0, 211)'/>

	<use xlink:href='#gpDot' x='510.39' y='381.08' color='rgb(148,   0, 211)'/>

	<use xlink:href='#gpDot' x='510.90' y='381.08' color='rgb(148,   0, 211)'/>

	<use xlink:href='#gpDot' x='511.40' y='217.54' color='rgb(148,   0, 211)'/>

	<use xlink:href='#gpDot' x='511.91' y='381.08' color='rgb(148,   0, 211)'/>

	<use xlink:href='#gpDot' x='512.16' y='381.08' color='rgb(148,   0, 211)'/>

	<use xlink:href='#gpDot' x='512.41' y='340.20' color='rgb(148,   0, 211)'/>

	<use xlink:href='#gpDot' x='513.17' y='381.08' color='rgb(148,   0, 211)'/>

	<use xlink:href='#gpDot' x='513.68' y='381.08' color='rgb(148,   0, 211)'/>

	<use xlink:href='#gpDot' x='514.18' y='381.08' color='rgb(148,   0, 211)'/>

	<use xlink:href='#gpDot' x='515.19' y='272.06' color='rgb(148,   0, 211)'/>

	<use xlink:href='#gpDot' x='515.70' y='272.06' color='rgb(148,   0, 211)'/>

	<use xlink:href='#gpDot' x='516.20' y='381.08' color='rgb(148,   0, 211)'/>

	<use xlink:href='#gpDot' x='516.46' y='217.54' color='rgb(148,   0, 211)'/>

	<use xlink:href='#gpDot' x='516.96' y='272.06' color='rgb(148,   0, 211)'/>

	<use xlink:href='#gpDot' x='517.47' y='54.01' color='rgb(148,   0, 211)'/>

	<use xlink:href='#gpDot' x='517.72' y='334.36' color='rgb(148,   0, 211)'/>

	<use xlink:href='#gpDot' x='518.22' y='217.54' color='rgb(148,   0, 211)'/>

	<use xlink:href='#gpDot' x='518.98' y='381.08' color='rgb(148,   0, 211)'/>

	<use xlink:href='#gpDot' x='519.49' y='184.84' color='rgb(148,   0, 211)'/>

	<use xlink:href='#gpDot' x='519.74' y='381.08' color='rgb(148,   0, 211)'/>

	<use xlink:href='#gpDot' x='520.25' y='381.08' color='rgb(148,   0, 211)'/>

	<use xlink:href='#gpDot' x='520.75' y='272.06' color='rgb(148,   0, 211)'/>

	<use xlink:href='#gpDot' x='521.26' y='54.01' color='rgb(148,   0, 211)'/>

	<use xlink:href='#gpDot' x='521.76' y='54.01' color='rgb(148,   0, 211)'/>

	<use xlink:href='#gpDot' x='522.52' y='240.91' color='rgb(148,   0, 211)'/>

	<use xlink:href='#gpDot' x='522.77' y='284.88' color='rgb(148,   0, 211)'/>

	<use xlink:href='#gpDot' x='523.28' y='272.06' color='rgb(148,   0, 211)'/>

	<use xlink:href='#gpDot' x='524.29' y='381.08' color='rgb(148,   0, 211)'/>

	<use xlink:href='#gpDot' x='524.79' y='381.08' color='rgb(148,   0, 211)'/>

	<use xlink:href='#gpDot' x='525.55' y='217.54' color='rgb(148,   0, 211)'/>

	<use xlink:href='#gpDot' x='526.81' y='381.08' color='rgb(148,   0, 211)'/>

	<use xlink:href='#gpDot' x='527.32' y='240.91' color='rgb(148,   0, 211)'/>

	<use xlink:href='#gpDot' x='528.08' y='272.06' color='rgb(148,   0, 211)'/>

	<use xlink:href='#gpDot' x='528.58' y='381.08' color='rgb(148,   0, 211)'/>

	<use xlink:href='#gpDot' x='529.09' y='381.08' color='rgb(148,   0, 211)'/>

	<use xlink:href='#gpDot' x='530.60' y='381.08' color='rgb(148,   0, 211)'/>

	<use xlink:href='#gpDot' x='544.00' y='359.28' color='rgb(148,   0, 211)'/>

	<use xlink:href='#gpDot' x='568.00' y='261.61' color='rgb(148,   0, 211)'/>

	<use xlink:href='#gpDot' x='568.25' y='190.46' color='rgb(148,   0, 211)'/>

	<use xlink:href='#gpDot' x='568.76' y='291.88' color='rgb(148,   0, 211)'/>

	<use xlink:href='#gpDot' x='569.77' y='196.73' color='rgb(148,   0, 211)'/>

	<use xlink:href='#gpDot' x='570.02' y='226.15' color='rgb(148,   0, 211)'/>

	<use xlink:href='#gpDot' x='570.78' y='235.72' color='rgb(148,   0, 211)'/>

	<use xlink:href='#gpDot' x='571.03' y='284.57' color='rgb(148,   0, 211)'/>

</g>
	</g>
<g fill="none" color="white" stroke="rgb(148,   0, 211)" stroke-width="2.00" stroke-linecap="butt" stroke-linejoin="miter">
</g>
<g fill="none" color="black" stroke="currentColor" stroke-width="2.00" stroke-linecap="butt" stroke-linejoin="miter">
</g>
<g fill="none" color="black" stroke="black" stroke-width="1.00" stroke-linecap="butt" stroke-linejoin="miter">
</g>
<g fill="none" color="black" stroke="currentColor" stroke-width="1.00" stroke-linecap="butt" stroke-linejoin="miter">
	<path stroke='black'  d='M72.53,54.01 L72.53,381.08 L574.82,381.08 L574.82,54.01 L72.53,54.01 Z  '/></g>
<g fill="none" color="black" stroke="currentColor" stroke-width="1.00" stroke-linecap="butt" stroke-linejoin="miter">
	<g transform="translate(323.67,30.91)" stroke="none" fill="black" font-family="Arial" font-size="12.00"  text-anchor="middle">
		<text><tspan font-family="Arial" >Ratio of minimal typechecking time compared to minimal total compilation time</tspan></text>
	</g>
</g>
<g fill="none" color="black" stroke="currentColor" stroke-width="1.00" stroke-linecap="butt" stroke-linejoin="miter">
</g>
</g>
</svg>

