<?xml version="1.0" encoding="utf-8"  standalone="no"?>
<svg 
 width="600" height="480"
 viewBox="0 0 600 480"
 xmlns="http://www.w3.org/2000/svg"
 xmlns:xlink="http://www.w3.org/1999/xlink"
>

<title>Gnuplot</title>
<desc>Produced by GNUPLOT 5.4 patchlevel 1 </desc>

<g id="gnuplot_canvas">

<rect x="0" y="0" width="600" height="480" fill="none"/>
<defs>

	<circle id='gpDot' r='0.5' stroke-width='0.5' stroke='currentColor'/>
	<path id='gpPt0' stroke-width='0.222' stroke='currentColor' d='M-1,0 h2 M0,-1 v2'/>
	<path id='gpPt1' stroke-width='0.222' stroke='currentColor' d='M-1,-1 L1,1 M1,-1 L-1,1'/>
	<path id='gpPt2' stroke-width='0.222' stroke='currentColor' d='M-1,0 L1,0 M0,-1 L0,1 M-1,-1 L1,1 M-1,1 L1,-1'/>
	<rect id='gpPt3' stroke-width='0.222' stroke='currentColor' x='-1' y='-1' width='2' height='2'/>
	<rect id='gpPt4' stroke-width='0.222' stroke='currentColor' fill='currentColor' x='-1' y='-1' width='2' height='2'/>
	<circle id='gpPt5' stroke-width='0.222' stroke='currentColor' cx='0' cy='0' r='1'/>
	<use xlink:href='#gpPt5' id='gpPt6' fill='currentColor' stroke='none'/>
	<path id='gpPt7' stroke-width='0.222' stroke='currentColor' d='M0,-1.33 L-1.33,0.67 L1.33,0.67 z'/>
	<use xlink:href='#gpPt7' id='gpPt8' fill='currentColor' stroke='none'/>
	<use xlink:href='#gpPt7' id='gpPt9' stroke='currentColor' transform='rotate(180)'/>
	<use xlink:href='#gpPt9' id='gpPt10' fill='currentColor' stroke='none'/>
	<use xlink:href='#gpPt3' id='gpPt11' stroke='currentColor' transform='rotate(45)'/>
	<use xlink:href='#gpPt11' id='gpPt12' fill='currentColor' stroke='none'/>
	<path id='gpPt13' stroke-width='0.222' stroke='currentColor' d='M0,1.330 L1.265,0.411 L0.782,-1.067 L-0.782,-1.076 L-1.265,0.411 z'/>
	<use xlink:href='#gpPt13' id='gpPt14' fill='currentColor' stroke='none'/>
	<filter id='textbox' filterUnits='objectBoundingBox' x='0' y='0' height='1' width='1'>
	  <feFlood flood-color='white' flood-opacity='1' result='bgnd'/>
	  <feComposite in='SourceGraphic' in2='bgnd' operator='atop'/>
	</filter>
	<filter id='greybox' filterUnits='objectBoundingBox' x='0' y='0' height='1' width='1'>
	  <feFlood flood-color='lightgrey' flood-opacity='1' result='grey'/>
	  <feComposite in='SourceGraphic' in2='grey' operator='atop'/>
	</filter>
</defs>
<g fill="none" color="white" stroke="currentColor" stroke-width="1.00" stroke-linecap="butt" stroke-linejoin="miter">
</g>
<g fill="none" color="black" stroke="currentColor" stroke-width="1.00" stroke-linecap="butt" stroke-linejoin="miter">
</g>
<g fill="none" color="black" stroke="black" stroke-width="0.50" stroke-linecap="butt" stroke-linejoin="miter">
</g>
<g fill="none" color="gray" stroke="currentColor" stroke-width="0.50" stroke-linecap="butt" stroke-linejoin="miter">
	<path stroke='gray' stroke-dasharray='2,4' class="gridline"  d='M72.53,406.84 L574.82,406.84  '/></g>
<g fill="none" color="gray" stroke="gray" stroke-width="1.00" stroke-linecap="butt" stroke-linejoin="miter">
</g>
<g fill="none" color="black" stroke="currentColor" stroke-width="1.00" stroke-linecap="butt" stroke-linejoin="miter">
	<path stroke='black'  d='M72.53,406.84 L81.53,406.84 M574.82,406.84 L565.82,406.84  '/>	<g transform="translate(64.14,410.74)" stroke="none" fill="black" font-family="Arial" font-size="12.00"  text-anchor="end">
		<text><tspan font-family="Arial" > 0.8</tspan></text>
	</g>
</g>
<g fill="none" color="black" stroke="currentColor" stroke-width="1.00" stroke-linecap="butt" stroke-linejoin="miter">
</g>
<g fill="none" color="black" stroke="black" stroke-width="0.50" stroke-linecap="butt" stroke-linejoin="miter">
</g>
<g fill="none" color="gray" stroke="currentColor" stroke-width="0.50" stroke-linecap="butt" stroke-linejoin="miter">
	<path stroke='gray' stroke-dasharray='2,4' class="gridline"  d='M72.53,362.74 L574.82,362.74  '/></g>
<g fill="none" color="gray" stroke="gray" stroke-width="1.00" stroke-linecap="butt" stroke-linejoin="miter">
</g>
<g fill="none" color="black" stroke="currentColor" stroke-width="1.00" stroke-linecap="butt" stroke-linejoin="miter">
	<path stroke='black'  d='M72.53,362.74 L81.53,362.74 M574.82,362.74 L565.82,362.74  '/>	<g transform="translate(64.14,366.64)" stroke="none" fill="black" font-family="Arial" font-size="12.00"  text-anchor="end">
		<text><tspan font-family="Arial" > 0.9</tspan></text>
	</g>
</g>
<g fill="none" color="black" stroke="currentColor" stroke-width="1.00" stroke-linecap="butt" stroke-linejoin="miter">
</g>
<g fill="none" color="black" stroke="black" stroke-width="0.50" stroke-linecap="butt" stroke-linejoin="miter">
</g>
<g fill="none" color="gray" stroke="currentColor" stroke-width="0.50" stroke-linecap="butt" stroke-linejoin="miter">
	<path stroke='gray' stroke-dasharray='2,4' class="gridline"  d='M72.53,318.63 L574.82,318.63  '/></g>
<g fill="none" color="gray" stroke="gray" stroke-width="1.00" stroke-linecap="butt" stroke-linejoin="miter">
</g>
<g fill="none" color="black" stroke="currentColor" stroke-width="1.00" stroke-linecap="butt" stroke-linejoin="miter">
	<path stroke='black'  d='M72.53,318.63 L81.53,318.63 M574.82,318.63 L565.82,318.63  '/>	<g transform="translate(64.14,322.53)" stroke="none" fill="black" font-family="Arial" font-size="12.00"  text-anchor="end">
		<text><tspan font-family="Arial" > 1</tspan></text>
	</g>
</g>
<g fill="none" color="black" stroke="currentColor" stroke-width="1.00" stroke-linecap="butt" stroke-linejoin="miter">
</g>
<g fill="none" color="black" stroke="black" stroke-width="0.50" stroke-linecap="butt" stroke-linejoin="miter">
</g>
<g fill="none" color="gray" stroke="currentColor" stroke-width="0.50" stroke-linecap="butt" stroke-linejoin="miter">
	<path stroke='gray' stroke-dasharray='2,4' class="gridline"  d='M72.53,274.53 L574.82,274.53  '/></g>
<g fill="none" color="gray" stroke="gray" stroke-width="1.00" stroke-linecap="butt" stroke-linejoin="miter">
</g>
<g fill="none" color="black" stroke="currentColor" stroke-width="1.00" stroke-linecap="butt" stroke-linejoin="miter">
	<path stroke='black'  d='M72.53,274.53 L81.53,274.53 M574.82,274.53 L565.82,274.53  '/>	<g transform="translate(64.14,278.43)" stroke="none" fill="black" font-family="Arial" font-size="12.00"  text-anchor="end">
		<text><tspan font-family="Arial" > 1.1</tspan></text>
	</g>
</g>
<g fill="none" color="black" stroke="currentColor" stroke-width="1.00" stroke-linecap="butt" stroke-linejoin="miter">
</g>
<g fill="none" color="black" stroke="black" stroke-width="0.50" stroke-linecap="butt" stroke-linejoin="miter">
</g>
<g fill="none" color="gray" stroke="currentColor" stroke-width="0.50" stroke-linecap="butt" stroke-linejoin="miter">
	<path stroke='gray' stroke-dasharray='2,4' class="gridline"  d='M72.53,230.42 L574.82,230.42  '/></g>
<g fill="none" color="gray" stroke="gray" stroke-width="1.00" stroke-linecap="butt" stroke-linejoin="miter">
</g>
<g fill="none" color="black" stroke="currentColor" stroke-width="1.00" stroke-linecap="butt" stroke-linejoin="miter">
	<path stroke='black'  d='M72.53,230.42 L81.53,230.42 M574.82,230.42 L565.82,230.42  '/>	<g transform="translate(64.14,234.32)" stroke="none" fill="black" font-family="Arial" font-size="12.00"  text-anchor="end">
		<text><tspan font-family="Arial" > 1.2</tspan></text>
	</g>
</g>
<g fill="none" color="black" stroke="currentColor" stroke-width="1.00" stroke-linecap="butt" stroke-linejoin="miter">
</g>
<g fill="none" color="black" stroke="black" stroke-width="0.50" stroke-linecap="butt" stroke-linejoin="miter">
</g>
<g fill="none" color="gray" stroke="currentColor" stroke-width="0.50" stroke-linecap="butt" stroke-linejoin="miter">
	<path stroke='gray' stroke-dasharray='2,4' class="gridline"  d='M72.53,186.32 L574.82,186.32  '/></g>
<g fill="none" color="gray" stroke="gray" stroke-width="1.00" stroke-linecap="butt" stroke-linejoin="miter">
</g>
<g fill="none" color="black" stroke="currentColor" stroke-width="1.00" stroke-linecap="butt" stroke-linejoin="miter">
	<path stroke='black'  d='M72.53,186.32 L81.53,186.32 M574.82,186.32 L565.82,186.32  '/>	<g transform="translate(64.14,190.22)" stroke="none" fill="black" font-family="Arial" font-size="12.00"  text-anchor="end">
		<text><tspan font-family="Arial" > 1.3</tspan></text>
	</g>
</g>
<g fill="none" color="black" stroke="currentColor" stroke-width="1.00" stroke-linecap="butt" stroke-linejoin="miter">
</g>
<g fill="none" color="black" stroke="black" stroke-width="0.50" stroke-linecap="butt" stroke-linejoin="miter">
</g>
<g fill="none" color="gray" stroke="currentColor" stroke-width="0.50" stroke-linecap="butt" stroke-linejoin="miter">
	<path stroke='gray' stroke-dasharray='2,4' class="gridline"  d='M72.53,142.22 L574.82,142.22  '/></g>
<g fill="none" color="gray" stroke="gray" stroke-width="1.00" stroke-linecap="butt" stroke-linejoin="miter">
</g>
<g fill="none" color="black" stroke="currentColor" stroke-width="1.00" stroke-linecap="butt" stroke-linejoin="miter">
	<path stroke='black'  d='M72.53,142.22 L81.53,142.22 M574.82,142.22 L565.82,142.22  '/>	<g transform="translate(64.14,146.12)" stroke="none" fill="black" font-family="Arial" font-size="12.00"  text-anchor="end">
		<text><tspan font-family="Arial" > 1.4</tspan></text>
	</g>
</g>
<g fill="none" color="black" stroke="currentColor" stroke-width="1.00" stroke-linecap="butt" stroke-linejoin="miter">
</g>
<g fill="none" color="black" stroke="black" stroke-width="0.50" stroke-linecap="butt" stroke-linejoin="miter">
</g>
<g fill="none" color="gray" stroke="currentColor" stroke-width="0.50" stroke-linecap="butt" stroke-linejoin="miter">
	<path stroke='gray' stroke-dasharray='2,4' class="gridline"  d='M72.53,98.11 L574.82,98.11  '/></g>
<g fill="none" color="gray" stroke="gray" stroke-width="1.00" stroke-linecap="butt" stroke-linejoin="miter">
</g>
<g fill="none" color="black" stroke="currentColor" stroke-width="1.00" stroke-linecap="butt" stroke-linejoin="miter">
	<path stroke='black'  d='M72.53,98.11 L81.53,98.11 M574.82,98.11 L565.82,98.11  '/>	<g transform="translate(64.14,102.01)" stroke="none" fill="black" font-family="Arial" font-size="12.00"  text-anchor="end">
		<text><tspan font-family="Arial" > 1.5</tspan></text>
	</g>
</g>
<g fill="none" color="black" stroke="currentColor" stroke-width="1.00" stroke-linecap="butt" stroke-linejoin="miter">
</g>
<g fill="none" color="black" stroke="black" stroke-width="0.50" stroke-linecap="butt" stroke-linejoin="miter">
</g>
<g fill="none" color="gray" stroke="currentColor" stroke-width="0.50" stroke-linecap="butt" stroke-linejoin="miter">
	<path stroke='gray' stroke-dasharray='2,4' class="gridline"  d='M72.53,54.01 L574.82,54.01  '/></g>
<g fill="none" color="gray" stroke="gray" stroke-width="1.00" stroke-linecap="butt" stroke-linejoin="miter">
</g>
<g fill="none" color="black" stroke="currentColor" stroke-width="1.00" stroke-linecap="butt" stroke-linejoin="miter">
	<path stroke='black'  d='M72.53,54.01 L81.53,54.01 M574.82,54.01 L565.82,54.01  '/>	<g transform="translate(64.14,57.91)" stroke="none" fill="black" font-family="Arial" font-size="12.00"  text-anchor="end">
		<text><tspan font-family="Arial" > 1.6</tspan></text>
	</g>
</g>
<g fill="none" color="black" stroke="currentColor" stroke-width="1.00" stroke-linecap="butt" stroke-linejoin="miter">
</g>
<g fill="none" color="black" stroke="black" stroke-width="0.50" stroke-linecap="butt" stroke-linejoin="miter">
</g>
<g fill="none" color="gray" stroke="currentColor" stroke-width="0.50" stroke-linecap="butt" stroke-linejoin="miter">
	<path stroke='gray' stroke-dasharray='2,4' class="gridline"  d='M72.53,406.84 L72.53,54.01  '/></g>
<g fill="none" color="gray" stroke="gray" stroke-width="1.00" stroke-linecap="butt" stroke-linejoin="miter">
</g>
<g fill="none" color="black" stroke="currentColor" stroke-width="1.00" stroke-linecap="butt" stroke-linejoin="miter">
	<path stroke='black'  d='M72.53,406.84 L72.53,397.84 M72.53,54.01 L72.53,63.01  '/>	<g transform="translate(68.63,415.23) rotate(90)" stroke="none" fill="black" font-family="Arial" font-size="12.00"  text-anchor="start">
		<text><tspan font-family="Arial" > 0</tspan></text>
	</g>
</g>
<g fill="none" color="black" stroke="currentColor" stroke-width="1.00" stroke-linecap="butt" stroke-linejoin="miter">
</g>
<g fill="none" color="black" stroke="black" stroke-width="0.50" stroke-linecap="butt" stroke-linejoin="miter">
</g>
<g fill="none" color="gray" stroke="currentColor" stroke-width="0.50" stroke-linecap="butt" stroke-linejoin="miter">
	<path stroke='gray' stroke-dasharray='2,4' class="gridline"  d='M122.76,406.84 L122.76,54.01  '/></g>
<g fill="none" color="gray" stroke="gray" stroke-width="1.00" stroke-linecap="butt" stroke-linejoin="miter">
</g>
<g fill="none" color="black" stroke="currentColor" stroke-width="1.00" stroke-linecap="butt" stroke-linejoin="miter">
	<path stroke='black'  d='M122.76,406.84 L122.76,397.84 M122.76,54.01 L122.76,63.01  '/>	<g transform="translate(118.86,415.23) rotate(90)" stroke="none" fill="black" font-family="Arial" font-size="12.00"  text-anchor="start">
		<text><tspan font-family="Arial" > 10</tspan></text>
	</g>
</g>
<g fill="none" color="black" stroke="currentColor" stroke-width="1.00" stroke-linecap="butt" stroke-linejoin="miter">
</g>
<g fill="none" color="black" stroke="black" stroke-width="0.50" stroke-linecap="butt" stroke-linejoin="miter">
</g>
<g fill="none" color="gray" stroke="currentColor" stroke-width="0.50" stroke-linecap="butt" stroke-linejoin="miter">
	<path stroke='gray' stroke-dasharray='2,4' class="gridline"  d='M172.99,406.84 L172.99,54.01  '/></g>
<g fill="none" color="gray" stroke="gray" stroke-width="1.00" stroke-linecap="butt" stroke-linejoin="miter">
</g>
<g fill="none" color="black" stroke="currentColor" stroke-width="1.00" stroke-linecap="butt" stroke-linejoin="miter">
	<path stroke='black'  d='M172.99,406.84 L172.99,397.84 M172.99,54.01 L172.99,63.01  '/>	<g transform="translate(169.09,415.23) rotate(90)" stroke="none" fill="black" font-family="Arial" font-size="12.00"  text-anchor="start">
		<text><tspan font-family="Arial" > 20</tspan></text>
	</g>
</g>
<g fill="none" color="black" stroke="currentColor" stroke-width="1.00" stroke-linecap="butt" stroke-linejoin="miter">
</g>
<g fill="none" color="black" stroke="black" stroke-width="0.50" stroke-linecap="butt" stroke-linejoin="miter">
</g>
<g fill="none" color="gray" stroke="currentColor" stroke-width="0.50" stroke-linecap="butt" stroke-linejoin="miter">
	<path stroke='gray' stroke-dasharray='2,4' class="gridline"  d='M223.22,406.84 L223.22,54.01  '/></g>
<g fill="none" color="gray" stroke="gray" stroke-width="1.00" stroke-linecap="butt" stroke-linejoin="miter">
</g>
<g fill="none" color="black" stroke="currentColor" stroke-width="1.00" stroke-linecap="butt" stroke-linejoin="miter">
	<path stroke='black'  d='M223.22,406.84 L223.22,397.84 M223.22,54.01 L223.22,63.01  '/>	<g transform="translate(219.32,415.23) rotate(90)" stroke="none" fill="black" font-family="Arial" font-size="12.00"  text-anchor="start">
		<text><tspan font-family="Arial" > 30</tspan></text>
	</g>
</g>
<g fill="none" color="black" stroke="currentColor" stroke-width="1.00" stroke-linecap="butt" stroke-linejoin="miter">
</g>
<g fill="none" color="black" stroke="black" stroke-width="0.50" stroke-linecap="butt" stroke-linejoin="miter">
</g>
<g fill="none" color="gray" stroke="currentColor" stroke-width="0.50" stroke-linecap="butt" stroke-linejoin="miter">
	<path stroke='gray' stroke-dasharray='2,4' class="gridline"  d='M273.45,406.84 L273.45,54.01  '/></g>
<g fill="none" color="gray" stroke="gray" stroke-width="1.00" stroke-linecap="butt" stroke-linejoin="miter">
</g>
<g fill="none" color="black" stroke="currentColor" stroke-width="1.00" stroke-linecap="butt" stroke-linejoin="miter">
	<path stroke='black'  d='M273.45,406.84 L273.45,397.84 M273.45,54.01 L273.45,63.01  '/>	<g transform="translate(269.55,415.23) rotate(90)" stroke="none" fill="black" font-family="Arial" font-size="12.00"  text-anchor="start">
		<text><tspan font-family="Arial" > 40</tspan></text>
	</g>
</g>
<g fill="none" color="black" stroke="currentColor" stroke-width="1.00" stroke-linecap="butt" stroke-linejoin="miter">
</g>
<g fill="none" color="black" stroke="black" stroke-width="0.50" stroke-linecap="butt" stroke-linejoin="miter">
</g>
<g fill="none" color="gray" stroke="currentColor" stroke-width="0.50" stroke-linecap="butt" stroke-linejoin="miter">
	<path stroke='gray' stroke-dasharray='2,4' class="gridline"  d='M323.68,406.84 L323.68,54.01  '/></g>
<g fill="none" color="gray" stroke="gray" stroke-width="1.00" stroke-linecap="butt" stroke-linejoin="miter">
</g>
<g fill="none" color="black" stroke="currentColor" stroke-width="1.00" stroke-linecap="butt" stroke-linejoin="miter">
	<path stroke='black'  d='M323.68,406.84 L323.68,397.84 M323.68,54.01 L323.68,63.01  '/>	<g transform="translate(319.78,415.23) rotate(90)" stroke="none" fill="black" font-family="Arial" font-size="12.00"  text-anchor="start">
		<text><tspan font-family="Arial" > 50</tspan></text>
	</g>
</g>
<g fill="none" color="black" stroke="currentColor" stroke-width="1.00" stroke-linecap="butt" stroke-linejoin="miter">
</g>
<g fill="none" color="black" stroke="black" stroke-width="0.50" stroke-linecap="butt" stroke-linejoin="miter">
</g>
<g fill="none" color="gray" stroke="currentColor" stroke-width="0.50" stroke-linecap="butt" stroke-linejoin="miter">
	<path stroke='gray' stroke-dasharray='2,4' class="gridline"  d='M373.90,406.84 L373.90,54.01  '/></g>
<g fill="none" color="gray" stroke="gray" stroke-width="1.00" stroke-linecap="butt" stroke-linejoin="miter">
</g>
<g fill="none" color="black" stroke="currentColor" stroke-width="1.00" stroke-linecap="butt" stroke-linejoin="miter">
	<path stroke='black'  d='M373.90,406.84 L373.90,397.84 M373.90,54.01 L373.90,63.01  '/>	<g transform="translate(370.00,415.23) rotate(90)" stroke="none" fill="black" font-family="Arial" font-size="12.00"  text-anchor="start">
		<text><tspan font-family="Arial" > 60</tspan></text>
	</g>
</g>
<g fill="none" color="black" stroke="currentColor" stroke-width="1.00" stroke-linecap="butt" stroke-linejoin="miter">
</g>
<g fill="none" color="black" stroke="black" stroke-width="0.50" stroke-linecap="butt" stroke-linejoin="miter">
</g>
<g fill="none" color="gray" stroke="currentColor" stroke-width="0.50" stroke-linecap="butt" stroke-linejoin="miter">
	<path stroke='gray' stroke-dasharray='2,4' class="gridline"  d='M424.13,406.84 L424.13,54.01  '/></g>
<g fill="none" color="gray" stroke="gray" stroke-width="1.00" stroke-linecap="butt" stroke-linejoin="miter">
</g>
<g fill="none" color="black" stroke="currentColor" stroke-width="1.00" stroke-linecap="butt" stroke-linejoin="miter">
	<path stroke='black'  d='M424.13,406.84 L424.13,397.84 M424.13,54.01 L424.13,63.01  '/>	<g transform="translate(420.23,415.23) rotate(90)" stroke="none" fill="black" font-family="Arial" font-size="12.00"  text-anchor="start">
		<text><tspan font-family="Arial" > 70</tspan></text>
	</g>
</g>
<g fill="none" color="black" stroke="currentColor" stroke-width="1.00" stroke-linecap="butt" stroke-linejoin="miter">
</g>
<g fill="none" color="black" stroke="black" stroke-width="0.50" stroke-linecap="butt" stroke-linejoin="miter">
</g>
<g fill="none" color="gray" stroke="currentColor" stroke-width="0.50" stroke-linecap="butt" stroke-linejoin="miter">
	<path stroke='gray' stroke-dasharray='2,4' class="gridline"  d='M474.36,406.84 L474.36,54.01  '/></g>
<g fill="none" color="gray" stroke="gray" stroke-width="1.00" stroke-linecap="butt" stroke-linejoin="miter">
</g>
<g fill="none" color="black" stroke="currentColor" stroke-width="1.00" stroke-linecap="butt" stroke-linejoin="miter">
	<path stroke='black'  d='M474.36,406.84 L474.36,397.84 M474.36,54.01 L474.36,63.01  '/>	<g transform="translate(470.46,415.23) rotate(90)" stroke="none" fill="black" font-family="Arial" font-size="12.00"  text-anchor="start">
		<text><tspan font-family="Arial" > 80</tspan></text>
	</g>
</g>
<g fill="none" color="black" stroke="currentColor" stroke-width="1.00" stroke-linecap="butt" stroke-linejoin="miter">
</g>
<g fill="none" color="black" stroke="black" stroke-width="0.50" stroke-linecap="butt" stroke-linejoin="miter">
</g>
<g fill="none" color="gray" stroke="currentColor" stroke-width="0.50" stroke-linecap="butt" stroke-linejoin="miter">
	<path stroke='gray' stroke-dasharray='2,4' class="gridline"  d='M524.59,406.84 L524.59,81.01 M524.59,63.01 L524.59,54.01  '/></g>
<g fill="none" color="gray" stroke="gray" stroke-width="1.00" stroke-linecap="butt" stroke-linejoin="miter">
</g>
<g fill="none" color="black" stroke="currentColor" stroke-width="1.00" stroke-linecap="butt" stroke-linejoin="miter">
	<path stroke='black'  d='M524.59,406.84 L524.59,397.84 M524.59,54.01 L524.59,63.01  '/>	<g transform="translate(520.69,415.23) rotate(90)" stroke="none" fill="black" font-family="Arial" font-size="12.00"  text-anchor="start">
		<text><tspan font-family="Arial" > 90</tspan></text>
	</g>
</g>
<g fill="none" color="black" stroke="currentColor" stroke-width="1.00" stroke-linecap="butt" stroke-linejoin="miter">
</g>
<g fill="none" color="black" stroke="black" stroke-width="0.50" stroke-linecap="butt" stroke-linejoin="miter">
</g>
<g fill="none" color="gray" stroke="currentColor" stroke-width="0.50" stroke-linecap="butt" stroke-linejoin="miter">
	<path stroke='gray' stroke-dasharray='2,4' class="gridline"  d='M574.82,406.84 L574.82,54.01  '/></g>
<g fill="none" color="gray" stroke="gray" stroke-width="1.00" stroke-linecap="butt" stroke-linejoin="miter">
</g>
<g fill="none" color="black" stroke="currentColor" stroke-width="1.00" stroke-linecap="butt" stroke-linejoin="miter">
	<path stroke='black'  d='M574.82,406.84 L574.82,397.84 M574.82,54.01 L574.82,63.01  '/>	<g transform="translate(570.92,415.23) rotate(90)" stroke="none" fill="black" font-family="Arial" font-size="12.00"  text-anchor="start">
		<text><tspan font-family="Arial" > 100</tspan></text>
	</g>
</g>
<g fill="none" color="black" stroke="currentColor" stroke-width="1.00" stroke-linecap="butt" stroke-linejoin="miter">
</g>
<g fill="none" color="black" stroke="currentColor" stroke-width="1.00" stroke-linecap="butt" stroke-linejoin="miter">
	<path stroke='black'  d='M72.53,54.01 L72.53,406.84 L574.82,406.84 L574.82,54.01 L72.53,54.01 Z  '/></g>
<g fill="none" color="black" stroke="currentColor" stroke-width="1.00" stroke-linecap="butt" stroke-linejoin="miter">
	<g transform="translate(19.18,230.43) rotate(270)" stroke="none" fill="black" font-family="Arial" font-size="12.00"  text-anchor="middle">
		<text><tspan font-family="Arial" >after/before</tspan></text>
	</g>
</g>
<g fill="none" color="black" stroke="currentColor" stroke-width="1.00" stroke-linecap="butt" stroke-linejoin="miter">
	<g transform="translate(323.67,471.30)" stroke="none" fill="black" font-family="Arial" font-size="12.00"  text-anchor="middle">
		<text><tspan font-family="Arial" >Quantiles</tspan></text>
	</g>
</g>
<g fill="none" color="black" stroke="currentColor" stroke-width="1.00" stroke-linecap="butt" stroke-linejoin="miter">
</g>
	<g id="gnuplot_plot_1" ><title>CDF</title>
<g fill="none" color="black" stroke="currentColor" stroke-width="1.00" stroke-linecap="butt" stroke-linejoin="miter">
	<g transform="translate(507.09,75.91)" stroke="none" fill="black" font-family="Arial" font-size="12.00"  text-anchor="end">
		<text><tspan font-family="Arial" >CDF</tspan></text>
	</g>
</g>
<g fill="none" color="black" stroke="currentColor" stroke-width="1.00" stroke-linecap="butt" stroke-linejoin="miter">
	<path stroke='rgb(148,   0, 211)'  d='M515.48,72.01 L558.04,72.01 M75.51,406.84 L75.71,398.66 L76.00,397.09 L76.29,392.42 L76.58,391.84 L76.87,390.13
		L77.16,383.44 L77.45,382.53 L77.74,381.72 L78.02,381.64 L78.31,381.39 L78.60,381.39 L78.89,381.27 L79.18,381.02
		L79.47,380.55 L79.76,380.12 L80.05,379.47 L80.34,378.69 L80.63,376.38 L80.92,375.94 L81.21,375.92 L81.49,375.64
		L81.78,375.49 L82.07,375.21 L82.36,374.89 L82.65,374.57 L82.94,373.57 L83.23,373.54 L83.52,373.52 L83.81,372.74
		L84.10,372.71 L84.39,372.54 L84.68,372.14 L84.96,371.27 L85.25,370.85 L85.54,370.38 L85.83,369.80 L86.12,369.79
		L86.41,369.44 L86.70,369.04 L86.99,368.97 L87.28,368.88 L87.57,368.62 L87.86,367.85 L88.15,367.04 L88.43,366.87
		L88.72,366.79 L89.01,365.60 L89.30,365.53 L89.59,365.39 L89.88,365.19 L90.17,364.16 L90.46,363.19 L90.75,362.68
		L91.04,362.67 L91.33,361.42 L91.62,361.07 L91.90,360.37 L92.19,360.01 L92.48,359.84 L92.77,358.83 L93.06,358.81
		L93.35,358.68 L93.64,358.62 L93.93,358.24 L94.22,357.74 L94.51,357.20 L94.80,357.15 L95.09,357.06 L95.37,357.00
		L95.66,356.90 L95.95,356.15 L96.24,356.08 L96.53,355.35 L96.82,354.73 L97.11,354.14 L97.40,353.66 L97.69,353.57
		L97.98,353.41 L98.27,353.35 L98.56,352.00 L98.84,351.76 L99.13,351.58 L99.42,351.50 L99.71,351.22 L100.00,350.88
		L100.29,350.15 L100.58,349.85 L100.87,349.54 L101.16,349.51 L101.45,349.25 L101.74,348.74 L102.03,348.27 L102.31,348.26
		L102.60,348.06 L102.89,348.06 L103.18,347.85 L103.47,347.73 L103.76,347.51 L104.05,347.46 L104.34,347.31 L104.63,347.17
		L104.92,347.01 L105.21,346.91 L105.50,346.67 L105.78,346.58 L106.07,346.55 L106.36,346.20 L106.65,346.18 L106.94,345.76
		L107.23,345.71 L107.52,345.67 L107.81,345.21 L108.10,345.04 L108.39,344.90 L108.68,344.84 L108.97,344.77 L109.25,344.70
		L109.54,344.62 L109.83,344.34 L110.12,344.26 L110.41,344.21 L110.70,344.06 L110.99,344.01 L111.28,343.99 L111.57,343.91
		L111.86,343.91 L112.15,343.70 L112.44,343.57 L112.72,343.51 L113.01,343.12 L113.30,343.11 L113.59,342.69 L113.88,342.54
		L114.17,342.14 L114.46,341.96 L114.75,341.87 L115.04,341.83 L115.33,341.18 L115.62,341.07 L115.91,340.96 L116.19,340.82
		L116.48,340.76 L116.77,340.63 L117.06,340.57 L117.35,340.56 L117.64,340.43 L117.93,340.41 L118.22,340.09 L118.51,339.91
		L118.80,339.75 L119.09,339.54 L119.38,339.51 L119.66,339.12 L119.95,339.06 L120.24,338.95 L120.53,338.92 L120.82,338.91
		L121.11,338.85 L121.40,338.67 L121.69,338.61 L121.98,338.15 L122.27,338.00 L122.56,337.96 L122.85,337.79 L123.13,337.60
		L123.42,337.54 L123.71,337.45 L124.00,337.40 L124.29,337.31 L124.58,337.18 L124.87,337.15 L125.16,337.06 L125.45,336.89
		L125.74,336.85 L126.03,336.83 L126.32,336.73 L126.61,336.70 L126.89,336.52 L127.18,336.02 L127.47,335.98 L127.76,335.96
		L128.05,335.96 L128.34,335.44 L128.63,335.26 L128.92,335.07 L129.21,334.93 L129.50,334.79 L129.79,334.74 L130.07,334.61
		L130.36,334.20 L130.65,334.14 L130.94,333.89 L131.23,333.87 L131.52,333.83 L131.81,333.59 L132.10,333.58 L132.39,333.33
		L132.68,333.06 L132.97,333.00 L133.26,332.97 L133.55,332.96 L133.83,332.93 L134.12,332.89 L134.41,332.85 L134.70,332.77
		L134.99,332.74 L135.28,332.68 L135.57,332.55 L135.86,332.51 L136.15,332.48 L136.44,332.42 L136.73,332.35 L137.01,332.33
		L137.30,332.22 L137.59,332.04 L137.88,331.76 L138.17,331.57 L138.46,331.48 L138.75,331.46 L139.04,331.44 L139.33,331.32
		L139.62,331.10 L139.91,331.07 L140.20,331.06 L140.49,330.76 L140.77,330.69 L141.06,330.63 L141.35,330.59 L141.64,330.57
		L141.93,330.54 L142.22,330.54 L142.51,330.27 L142.80,330.24 L143.09,330.14 L143.38,330.02 L143.67,330.01 L143.96,329.98
		L144.24,329.97 L144.53,329.95 L144.82,329.91 L145.11,329.79 L145.40,329.74 L145.69,329.72 L145.98,329.66 L146.27,329.66
		L146.56,329.61 L146.85,329.56 L147.14,329.54 L147.43,329.46 L147.71,329.44 L148.00,329.43 L148.29,329.34 L148.58,329.34
		L148.87,329.33 L149.16,329.28 L149.45,329.24 L149.74,329.07 L150.03,329.04 L150.32,328.95 L150.61,328.83 L150.90,328.75
		L151.18,328.75 L151.47,328.73 L151.76,328.71 L152.05,328.66 L152.34,328.65 L152.63,328.44 L152.92,328.43 L153.21,328.32
		L153.50,328.21 L153.79,328.11 L154.08,328.07 L154.37,328.06 L154.65,327.87 L154.94,327.86 L155.23,327.71 L155.52,327.68
		L155.81,327.46 L156.10,327.46 L156.39,327.46 L156.68,327.25 L156.97,327.23 L157.26,327.21 L157.55,327.12 L157.84,327.06
		L158.12,326.94 L158.41,326.84 L158.70,326.81 L158.99,326.78 L159.28,326.71 L159.57,326.70 L159.86,326.68 L160.15,326.63
		L160.44,326.58 L160.73,326.57 L161.02,326.53 L161.31,326.52 L161.59,326.50 L161.88,326.48 L162.17,326.44 L162.46,326.38
		L162.75,326.34 L163.04,326.19 L163.33,326.12 L163.62,326.08 L163.91,326.08 L164.20,326.00 L164.49,325.92 L164.78,325.89
		L165.06,325.81 L165.35,325.62 L165.64,325.59 L165.93,325.51 L166.22,325.48 L166.51,325.42 L166.80,325.35 L167.09,325.13
		L167.38,324.99 L167.67,324.98 L167.96,324.95 L168.25,324.81 L168.53,324.80 L168.82,324.75 L169.11,324.72 L169.40,324.63
		L169.69,324.59 L169.98,324.58 L170.27,324.53 L170.56,324.48 L170.85,324.36 L171.14,324.31 L171.43,324.30 L171.72,324.29
		L172.01,324.28 L172.29,324.28 L172.58,324.26 L172.87,324.18 L173.16,324.17 L173.45,324.12 L173.74,324.00 L174.03,323.98
		L174.32,323.97 L174.61,323.86 L174.90,323.75 L175.19,323.72 L175.47,323.69 L175.76,323.68 L176.05,323.68 L176.34,323.63
		L176.63,323.60 L176.92,323.52 L177.21,323.44 L177.50,323.37 L177.79,323.37 L178.08,323.36 L178.37,323.30 L178.66,323.26
		L178.95,323.21 L179.23,323.17 L179.52,323.02 L179.81,323.00 L180.10,323.00 L180.39,322.99 L180.68,322.98 L180.97,322.96
		L181.26,322.94 L181.55,322.84 L181.84,322.84 L182.13,322.83 L182.41,322.82 L182.70,322.77 L182.99,322.68 L183.28,322.66
		L183.57,322.65 L183.86,322.61 L184.15,322.60 L184.44,322.57 L184.73,322.56 L185.02,322.54 L185.31,322.44 L185.60,322.42
		L185.88,322.39 L186.17,322.34 L186.46,322.31 L186.75,322.19 L187.04,322.17 L187.33,322.17 L187.62,322.11 L187.91,322.09
		L188.20,322.09 L188.49,322.05 L188.78,322.03 L189.07,322.02 L189.36,321.95 L189.64,321.94 L189.93,321.91 L190.22,321.88
		L190.51,321.79 L190.80,321.78 L191.09,321.77 L191.38,321.76 L191.67,321.71 L191.96,321.62 L192.25,321.57 L192.54,321.49
		L192.82,321.47 L193.11,321.47 L193.40,321.38 L193.69,321.36 L193.98,321.35 L194.27,321.34 L194.56,321.29 L194.85,321.27
		L195.14,321.25 L195.43,321.15 L195.72,321.12 L196.01,321.07 L196.30,321.02 L196.58,321.01 L196.87,320.98 L197.16,320.89
		L197.45,320.88 L197.74,320.87 L198.03,320.73 L198.32,320.73 L198.61,320.72 L198.90,320.71 L199.19,320.70 L199.48,320.69
		L199.77,320.68 L200.05,320.68 L200.34,320.66 L200.63,320.65 L200.92,320.64 L201.21,320.62 L201.50,320.61 L201.79,320.59
		L202.08,320.53 L202.37,320.49 L202.66,320.41 L202.95,320.41 L203.24,320.39 L203.52,320.39 L203.81,320.38 L204.10,320.37
		L204.39,320.35 L204.68,320.25 L204.97,320.24 L205.26,320.21 L205.55,320.16 L205.84,320.15 L206.13,320.14 L206.42,320.12
		L206.71,320.10 L206.99,320.09 L207.28,320.07 L207.57,320.07 L207.86,320.06 L208.15,320.06 L208.44,319.98 L208.73,319.96
		L209.02,319.95 L209.31,319.90 L209.60,319.89 L209.89,319.89 L210.18,319.88 L210.46,319.84 L210.75,319.81 L211.04,319.78
		L211.33,319.77 L211.62,319.73 L211.91,319.64 L212.20,319.59 L212.49,319.56 L212.78,319.54 L213.07,319.54 L213.36,319.52
		L213.65,319.49 L213.93,319.42 L214.22,319.39 L214.51,319.32 L214.80,319.31 L215.09,319.29 L215.38,319.29 L215.67,319.29
		L215.96,319.23 L216.25,319.19 L216.54,319.18 L216.83,319.14 L217.12,319.14 L217.40,319.14 L217.69,319.13 L217.98,319.13
		L218.27,319.08 L218.56,319.07 L218.85,319.07 L219.14,319.07 L219.43,319.07 L219.72,319.07 L220.01,319.07 L220.30,319.05
		L220.59,319.04 L220.87,319.00 L221.16,318.95 L221.45,318.94 L221.74,318.94 L222.03,318.93 L222.32,318.93 L222.61,318.93
		L222.90,318.93 L223.19,318.93 L223.48,318.93 L223.77,318.93 L224.06,318.93 L224.34,318.93 L224.63,318.89 L224.92,318.88
		L225.21,318.88 L225.50,318.85 L225.79,318.85 L226.08,318.85 L226.37,318.85 L226.66,318.85 L226.95,318.81 L227.24,318.80
		L227.53,318.80 L227.81,318.78 L228.10,318.77 L228.39,318.73 L228.68,318.63 L228.97,318.63 L229.26,318.63 L229.55,318.63
		L229.84,318.63 L230.13,318.63 L230.42,318.63 L230.71,318.63 L231.00,318.63 L231.28,318.63 L231.57,318.63 L231.86,318.63
		L232.15,318.63 L232.44,318.63 L232.73,318.63 L233.02,318.63 L233.31,318.63 L233.60,318.63 L233.89,318.63 L234.18,318.63
		L234.47,318.63 L234.76,318.63 L235.04,318.63 L235.33,318.63 L235.62,318.63 L235.91,318.63 L236.20,318.63 L236.49,318.63
		L236.78,318.63 L237.07,318.63 L237.36,318.63 L237.65,318.63 L237.94,318.63 L238.22,318.63 L238.51,318.63 L238.80,318.63
		L239.09,318.63 L239.38,318.63 L239.67,318.63 L239.96,318.63 L240.25,318.63 L240.54,318.63 L240.83,318.63 L241.12,318.63
		L241.41,318.63 L241.70,318.63 L241.98,318.63 L242.27,318.63 L242.56,318.63 L242.85,318.63 L243.14,318.63 L243.43,318.63
		L243.72,318.63 L244.01,318.63 L244.30,318.63 L244.59,318.63 L244.88,318.63 L245.17,318.63 L245.45,318.63 L245.74,318.63
		L246.03,318.63 L246.32,318.63 L246.61,318.63 L246.90,318.63 L247.19,318.63 L247.48,318.63 L247.77,318.63 L248.06,318.63
		L248.35,318.63 L248.63,318.63 L248.92,318.63 L249.21,318.63 L249.50,318.63 L249.79,318.63 L250.08,318.63 L250.37,318.63
		L250.66,318.63 L250.95,318.63 L251.24,318.63 L251.53,318.62 L251.82,318.60 L252.11,318.56 L252.39,318.56 L252.68,318.54
		L252.97,318.53 L253.26,318.52 L253.55,318.51 L253.84,318.51 L254.13,318.50 L254.42,318.49 L254.71,318.41 L255.00,318.41
		L255.29,318.41 L255.58,318.38 L255.86,318.38 L256.15,318.38 L256.44,318.38 L256.73,318.38 L257.02,318.38 L257.31,318.38
		L257.60,318.35 L257.89,318.34 L258.18,318.34 L258.47,318.34 L258.76,318.34 L259.05,318.34 L259.33,318.34 L259.62,318.34
		L259.91,318.30 L260.20,318.30 L260.49,318.28 L260.78,318.27 L261.07,318.24 L261.36,318.24 L261.65,318.22 L261.94,318.21
		L262.23,318.20 L262.52,318.19 L262.80,318.16 L263.09,318.13 L263.38,318.13 L263.67,318.09 L263.96,318.07 L264.25,318.05
		L264.54,318.05 L264.83,318.05 L265.12,318.05 L265.41,318.04 L265.70,318.01 L265.99,317.99 L266.27,317.98 L266.56,317.98
		L266.85,317.94 L267.14,317.94 L267.43,317.93 L267.72,317.91 L268.01,317.90 L268.30,317.89 L268.59,317.88 L268.88,317.88
		L269.17,317.88 L269.46,317.88 L269.74,317.88 L270.03,317.82 L270.32,317.80 L270.61,317.77 L270.90,317.75 L271.19,317.75
		L271.48,317.75 L271.77,317.75 L272.06,317.75 L272.35,317.74 L272.64,317.72 L272.93,317.72 L273.21,317.72 L273.50,317.71
		L273.79,317.65 L274.08,317.64 L274.37,317.63 L274.66,317.62 L274.95,317.62 L275.24,317.62 L275.53,317.60 L275.82,317.59
		L276.11,317.53 L276.40,317.53 L276.68,317.53 L276.97,317.46 L277.26,317.45 L277.55,317.43 L277.84,317.43 L278.13,317.42
		L278.42,317.40 L278.71,317.39 L279.00,317.37 L279.29,317.37 L279.58,317.36 L279.87,317.33 L280.15,317.32 L280.44,317.27
		L280.73,317.27 L281.02,317.27 L281.31,317.24 L281.60,317.24 L281.89,317.23 L282.18,317.23 L282.47,317.20 L282.76,317.19
		L283.05,317.18 L283.34,317.16 L283.62,317.16 L283.91,317.13 L284.20,317.12 L284.49,317.08 L284.78,317.08 L285.07,317.06
		L285.36,317.04 L285.65,317.04 L285.94,317.01 L286.23,317.01 L286.52,316.99 L286.81,316.99 L287.09,316.98 L287.38,316.98
		L287.67,316.98 L287.96,316.96 L288.25,316.94 L288.54,316.94 L288.83,316.92 L289.12,316.92 L289.41,316.89 L289.70,316.88
		L289.99,316.87 L290.28,316.87 L290.57,316.87 L290.85,316.87 L291.14,316.86 L291.43,316.84 L291.72,316.84 L292.01,316.82
		L292.30,316.80 L292.59,316.76 L292.88,316.75 L293.17,316.74 L293.46,316.71 L293.75,316.66 L294.03,316.64 L294.32,316.63
		L294.61,316.63 L294.90,316.62 L295.19,316.62 L295.48,316.61 L295.77,316.57 L296.06,316.57 L296.35,316.54 L296.64,316.52
		L296.93,316.46 L297.22,316.45 L297.51,316.45 L297.79,316.44 L298.08,316.39 L298.37,316.37 L298.66,316.37 L298.95,316.35
		L299.24,316.32 L299.53,316.31 L299.82,316.30 L300.11,316.28 L300.40,316.27 L300.69,316.26 L300.98,316.26 L301.26,316.26
		L301.55,316.25 L301.84,316.23 L302.13,316.22 L302.42,316.21 L302.71,316.21 L303.00,316.18 L303.29,316.18 L303.58,316.15
		L303.87,316.14 L304.16,316.14 L304.45,316.11 L304.73,316.11 L305.02,316.11 L305.31,316.09 L305.60,316.09 L305.89,316.09
		L306.18,316.07 L306.47,316.05 L306.76,316.04 L307.05,316.04 L307.34,316.04 L307.63,316.03 L307.92,315.99 L308.20,315.99
		L308.49,315.97 L308.78,315.94 L309.07,315.93 L309.36,315.92 L309.65,315.83 L309.94,315.81 L310.23,315.79 L310.52,315.78
		L310.81,315.75 L311.10,315.75 L311.39,315.74 L311.67,315.74 L311.96,315.70 L312.25,315.70 L312.54,315.66 L312.83,315.61
		L313.12,315.55 L313.41,315.54 L313.70,315.49 L313.99,315.49 L314.28,315.49 L314.57,315.45 L314.86,315.44 L315.14,315.44
		L315.43,315.43 L315.72,315.39 L316.01,315.37 L316.30,315.36 L316.59,315.35 L316.88,315.34 L317.17,315.34 L317.46,315.30
		L317.75,315.27 L318.04,315.26 L318.33,315.23 L318.61,315.21 L318.90,315.20 L319.19,315.20 L319.48,315.20 L319.77,315.15
		L320.06,315.11 L320.35,315.05 L320.64,315.03 L320.93,315.02 L321.22,315.02 L321.51,315.01 L321.80,314.98 L322.08,314.96
		L322.37,314.96 L322.66,314.95 L322.95,314.91 L323.24,314.88 L323.53,314.87 L323.82,314.87 L324.11,314.83 L324.40,314.82
		L324.69,314.80 L324.98,314.79 L325.27,314.76 L325.55,314.72 L325.84,314.70 L326.13,314.69 L326.42,314.65 L326.71,314.59
		L327.00,314.59 L327.29,314.58 L327.58,314.52 L327.87,314.52 L328.16,314.50 L328.45,314.50 L328.74,314.40 L329.02,314.34
		L329.31,314.32 L329.60,314.23 L329.89,314.22 L330.18,314.16 L330.47,314.15 L330.76,314.13 L331.05,314.12 L331.34,314.08
		L331.63,314.07 L331.92,314.07 L332.21,314.05 L332.49,314.05 L332.78,314.05 L333.07,314.02 L333.36,314.02 L333.65,314.00
		L333.94,314.00 L334.23,314.00 L334.52,313.98 L334.81,313.96 L335.10,313.95 L335.39,313.95 L335.68,313.94 L335.96,313.94
		L336.25,313.93 L336.54,313.93 L336.83,313.93 L337.12,313.89 L337.41,313.85 L337.70,313.82 L337.99,313.79 L338.28,313.78
		L338.57,313.75 L338.86,313.74 L339.15,313.68 L339.43,313.68 L339.72,313.66 L340.01,313.60 L340.30,313.59 L340.59,313.58
		L340.88,313.54 L341.17,313.51 L341.46,313.49 L341.75,313.47 L342.04,313.45 L342.33,313.41 L342.62,313.41 L342.90,313.35
		L343.19,313.34 L343.48,313.34 L343.77,313.34 L344.06,313.33 L344.35,313.29 L344.64,313.27 L344.93,313.27 L345.22,313.25
		L345.51,313.25 L345.80,313.24 L346.09,313.24 L346.37,313.17 L346.66,313.17 L346.95,313.16 L347.24,313.14 L347.53,313.14
		L347.82,313.12 L348.11,313.10 L348.40,313.04 L348.69,313.04 L348.98,313.03 L349.27,313.02 L349.56,313.01 L349.84,312.99
		L350.13,312.97 L350.42,312.95 L350.71,312.92 L351.00,312.89 L351.29,312.86 L351.58,312.86 L351.87,312.85 L352.16,312.83
		L352.45,312.80 L352.74,312.80 L353.03,312.74 L353.32,312.72 L353.60,312.71 L353.89,312.70 L354.18,312.68 L354.47,312.67
		L354.76,312.65 L355.05,312.63 L355.34,312.62 L355.63,312.60 L355.92,312.60 L356.21,312.53 L356.50,312.48 L356.78,312.48
		L357.07,312.46 L357.36,312.43 L357.65,312.41 L357.94,312.38 L358.23,312.36 L358.52,312.35 L358.81,312.34 L359.10,312.32
		L359.39,312.31 L359.68,312.29 L359.97,312.26 L360.26,312.26 L360.54,312.17 L360.83,312.16 L361.12,312.15 L361.41,312.13
		L361.70,312.12 L361.99,312.10 L362.28,312.07 L362.57,312.06 L362.86,312.02 L363.15,311.96 L363.44,311.95 L363.73,311.92
		L364.01,311.92 L364.30,311.91 L364.59,311.90 L364.88,311.89 L365.17,311.87 L365.46,311.82 L365.75,311.79 L366.04,311.79
		L366.33,311.78 L366.62,311.77 L366.91,311.77 L367.20,311.75 L367.48,311.69 L367.77,311.68 L368.06,311.65 L368.35,311.63
		L368.64,311.62 L368.93,311.58 L369.22,311.54 L369.51,311.54 L369.80,311.52 L370.09,311.52 L370.38,311.47 L370.67,311.43
		L370.95,311.41 L371.24,311.32 L371.53,311.31 L371.82,311.31 L372.11,311.30 L372.40,311.28 L372.69,311.26 L372.98,311.25
		L373.27,311.25 L373.56,311.19 L373.85,311.18 L374.14,311.17 L374.42,311.15 L374.71,311.14 L375.00,311.10 L375.29,311.10
		L375.58,311.09 L375.87,311.06 L376.16,310.99 L376.45,310.94 L376.74,310.90 L377.03,310.88 L377.32,310.88 L377.61,310.85
		L377.89,310.71 L378.18,310.66 L378.47,310.65 L378.76,310.54 L379.05,310.54 L379.34,310.52 L379.63,310.52 L379.92,310.46
		L380.21,310.45 L380.50,310.33 L380.79,310.28 L381.08,310.21 L381.36,310.16 L381.65,310.12 L381.94,310.11 L382.23,310.01
		L382.52,309.96 L382.81,309.90 L383.10,309.85 L383.39,309.83 L383.68,309.82 L383.97,309.81 L384.26,309.80 L384.55,309.53
		L384.83,309.50 L385.12,309.50 L385.41,309.48 L385.70,309.46 L385.99,309.45 L386.28,309.44 L386.57,309.38 L386.86,309.37
		L387.15,309.26 L387.44,309.24 L387.73,309.22 L388.02,309.20 L388.30,309.16 L388.59,309.16 L388.88,309.06 L389.17,309.03
		L389.46,309.02 L389.75,308.98 L390.04,308.95 L390.33,308.95 L390.62,308.86 L390.91,308.85 L391.20,308.80 L391.49,308.79
		L391.77,308.76 L392.06,308.76 L392.35,308.74 L392.64,308.72 L392.93,308.70 L393.22,308.67 L393.51,308.67 L393.80,308.65
		L394.09,308.63 L394.38,308.63 L394.67,308.57 L394.96,308.52 L395.24,308.49 L395.53,308.49 L395.82,308.45 L396.11,308.41
		L396.40,308.40 L396.69,308.37 L396.98,308.37 L397.27,308.36 L397.56,308.34 L397.85,308.28 L398.14,308.22 L398.43,308.21
		L398.72,308.18 L399.00,308.12 L399.29,308.10 L399.58,308.10 L399.87,308.09 L400.16,308.08 L400.45,308.07 L400.74,308.07
		L401.03,308.07 L401.32,308.04 L401.61,308.02 L401.90,307.99 L402.18,307.94 L402.47,307.83 L402.76,307.82 L403.05,307.79
		L403.34,307.76 L403.63,307.75 L403.92,307.69 L404.21,307.69 L404.50,307.67 L404.79,307.51 L405.08,307.46 L405.37,307.44
		L405.65,307.40 L405.94,307.36 L406.23,307.32 L406.52,307.27 L406.81,307.22 L407.10,307.19 L407.39,307.15 L407.68,307.09
		L407.97,307.09 L408.26,307.08 L408.55,307.07 L408.84,306.97 L409.13,306.95 L409.41,306.93 L409.70,306.87 L409.99,306.87
		L410.28,306.87 L410.57,306.85 L410.86,306.81 L411.15,306.78 L411.44,306.75 L411.73,306.75 L412.02,306.69 L412.31,306.59
		L412.59,306.59 L412.88,306.58 L413.17,306.58 L413.46,306.50 L413.75,306.50 L414.04,306.46 L414.33,306.41 L414.62,306.32
		L414.91,306.30 L415.20,306.28 L415.49,306.24 L415.78,306.22 L416.07,306.22 L416.35,306.18 L416.64,306.17 L416.93,306.15
		L417.22,306.12 L417.51,306.05 L417.80,306.03 L418.09,306.01 L418.38,306.00 L418.67,305.99 L418.96,305.99 L419.25,305.94
		L419.54,305.94 L419.82,305.81 L420.11,305.78 L420.40,305.75 L420.69,305.71 L420.98,305.70 L421.27,305.66 L421.56,305.60
		L421.85,305.58 L422.14,305.58 L422.43,305.51 L422.72,305.49 L423.01,305.42 L423.29,305.42 L423.58,305.39 L423.87,305.37
		L424.16,305.37 L424.45,305.33 L424.74,305.32 L425.03,305.22 L425.32,305.20 L425.61,305.04 L425.90,305.03 L426.19,305.02
		L426.48,305.01 L426.76,305.00 L427.05,305.00 L427.34,304.99 L427.63,304.97 L427.92,304.96 L428.21,304.96 L428.50,304.93
		L428.79,304.92 L429.08,304.84 L429.37,304.84 L429.66,304.82 L429.95,304.80 L430.23,304.78 L430.52,304.72 L430.81,304.70
		L431.10,304.68 L431.39,304.67 L431.68,304.66 L431.97,304.63 L432.26,304.57 L432.55,304.51 L432.84,304.40 L433.13,304.29
		L433.42,304.24 L433.70,304.19 L433.99,304.12 L434.28,304.07 L434.57,304.06 L434.86,304.05 L435.15,304.05 L435.44,304.03
		L435.73,304.03 L436.02,303.99 L436.31,303.99 L436.60,303.97 L436.89,303.95 L437.17,303.84 L437.46,303.84 L437.75,303.80
		L438.04,303.75 L438.33,303.74 L438.62,303.74 L438.91,303.72 L439.20,303.58 L439.49,303.54 L439.78,303.44 L440.07,303.41
		L440.36,303.32 L440.64,303.32 L440.93,303.30 L441.22,303.23 L441.51,303.19 L441.80,303.12 L442.09,303.12 L442.38,303.07
		L442.67,303.02 L442.96,302.98 L443.25,302.94 L443.54,302.94 L443.83,302.93 L444.11,302.89 L444.40,302.88 L444.69,302.87
		L444.98,302.87 L445.27,302.83 L445.56,302.82 L445.85,302.72 L446.14,302.67 L446.43,302.62 L446.72,302.57 L447.01,302.41
		L447.30,302.39 L447.58,302.38 L447.87,302.32 L448.16,302.18 L448.45,302.17 L448.74,302.17 L449.03,302.12 L449.32,302.06
		L449.61,302.05 L449.90,302.01 L450.19,301.99 L450.48,301.97 L450.77,301.96 L451.05,301.88 L451.34,301.85 L451.63,301.82
		L451.92,301.79 L452.21,301.75 L452.50,301.72 L452.79,301.67 L453.08,301.63 L453.37,301.63 L453.66,301.56 L453.95,301.56
		L454.24,301.56 L454.53,301.52 L454.81,301.52 L455.10,301.52 L455.39,301.43 L455.68,301.39 L455.97,301.32 L456.26,301.30
		L456.55,301.26 L456.84,301.24 L457.13,301.21 L457.42,301.04 L457.71,301.04 L457.99,301.04 L458.28,301.04 L458.57,300.90
		L458.86,300.89 L459.15,300.81 L459.44,300.77 L459.73,300.76 L460.02,300.75 L460.31,300.70 L460.60,300.66 L460.89,300.62
		L461.18,300.41 L461.47,300.38 L461.75,300.36 L462.04,300.35 L462.33,300.33 L462.62,300.14 L462.91,300.13 L463.20,300.10
		L463.49,300.05 L463.78,300.04 L464.07,300.01 L464.36,299.98 L464.65,299.94 L464.94,299.93 L465.22,299.82 L465.51,299.73
		L465.80,299.66 L466.09,299.65 L466.38,299.63 L466.67,299.60 L466.96,299.57 L467.25,299.39 L467.54,299.39 L467.83,299.32
		L468.12,299.28 L468.40,299.13 L468.69,299.04 L468.98,299.03 L469.27,298.97 L469.56,298.90 L469.85,298.83 L470.14,298.80
		L470.43,298.77 L470.72,298.74 L471.01,298.72 L471.30,298.72 L471.59,298.67 L471.88,298.56 L472.16,298.54 L472.45,298.30
		L472.74,298.23 L473.03,298.23 L473.32,298.18 L473.61,298.16 L473.90,298.15 L474.19,298.06 L474.48,298.04 L474.77,297.97
		L475.06,297.97 L475.34,297.84 L475.63,297.78 L475.92,297.77 L476.21,297.69 L476.50,297.30 L476.79,297.20 L477.08,297.11
		L477.37,297.07 L477.66,296.94 L477.95,296.92 L478.24,296.92 L478.53,296.88 L478.82,296.84 L479.10,296.78 L479.39,296.55
		L479.68,296.51 L479.97,296.49 L480.26,296.45 L480.55,296.44 L480.84,296.43 L481.13,296.42 L481.42,296.42 L481.71,296.37
		L482.00,296.35 L482.29,296.32 L482.57,296.29 L482.86,296.27 L483.15,296.21 L483.44,296.15 L483.73,296.10 L484.02,296.00
		L484.31,295.87 L484.60,295.81 L484.89,295.80 L485.18,295.67 L485.47,295.63 L485.76,295.57 L486.04,295.48 L486.33,295.42
		L486.62,295.40 L486.91,295.39 L487.20,295.21 L487.49,295.16 L487.78,295.04 L488.07,295.03 L488.36,295.03 L488.65,294.81
		L488.94,294.78 L489.23,294.69 L489.51,294.63 L489.80,294.43 L490.09,294.41 L490.38,294.40 L490.67,294.38 L490.96,294.35
		L491.25,294.30 L491.54,294.23 L491.83,294.19 L492.12,294.18 L492.41,294.17 L492.70,293.89 L492.98,293.83 L493.27,293.69
		L493.56,293.66 L493.85,293.60 L494.14,293.56 L494.43,293.54 L494.72,293.45 L495.01,293.35 L495.30,293.32 L495.59,293.26
		L495.88,292.97 L496.17,292.92 L496.45,292.88 L496.74,292.86 L497.03,292.62 L497.32,292.51 L497.61,292.47 L497.90,292.00
		L498.19,291.97 L498.48,291.96 L498.77,291.91 L499.06,291.90 L499.35,291.88 L499.64,291.86 L499.92,291.62 L500.21,291.59
		L500.50,291.58 L500.79,291.50 L501.08,291.48 L501.37,291.36 L501.66,291.31 L501.95,291.20 L502.24,291.01 L502.53,290.92
		L502.82,290.84 L503.11,290.66 L503.39,290.54 L503.68,290.53 L503.97,290.39 L504.26,290.38 L504.55,290.24 L504.84,290.23
		L505.13,290.22 L505.42,289.93 L505.71,289.78 L506.00,289.54 L506.29,289.37 L506.58,289.23 L506.86,289.16 L507.15,288.91
		L507.44,288.76 L507.73,288.69 L508.02,288.66 L508.31,288.38 L508.60,288.36 L508.89,288.30 L509.18,288.17 L509.47,288.14
		L509.76,288.11 L510.05,287.73 L510.34,287.71 L510.62,287.68 L510.91,287.37 L511.20,287.34 L511.49,287.25 L511.78,287.22
		L512.07,287.16 L512.36,286.99 L512.65,286.65 L512.94,286.59 L513.23,286.46 L513.52,286.13 L513.80,286.09 L514.09,285.94
		L514.38,285.90 L514.67,285.68 L514.96,285.65 L515.25,285.57 L515.54,285.48 L515.83,285.33 L516.12,285.26 L516.41,285.02
		L516.70,284.95 L516.99,284.78 L517.28,284.73 L517.56,284.53 L517.85,284.50 L518.14,284.02 L518.43,283.87 L518.72,283.75
		L519.01,283.29 L519.30,283.26 L519.59,282.84 L519.88,282.65 L520.17,282.53 L520.46,282.50 L520.74,282.37 L521.03,282.11
		L521.32,282.03 L521.61,281.88 L521.90,281.83 L522.19,281.81 L522.48,281.51 L522.77,281.21 L523.06,281.20 L523.35,281.15
		L523.64,280.91 L523.93,280.73 L524.22,280.72 L524.50,280.62 L524.79,280.54 L525.08,280.46 L525.37,280.44 L525.66,280.00
		L525.95,279.71 L526.24,279.64 L526.53,279.59 L526.82,279.49 L527.11,279.35 L527.40,279.21 L527.69,278.98 L527.97,278.97
		L528.26,278.93 L528.55,278.82 L528.84,278.60 L529.13,278.32 L529.42,278.29 L529.71,278.20 L530.00,278.16 L530.29,277.93
		L530.58,277.76 L530.87,277.46 L531.16,277.45 L531.44,277.25 L531.73,277.21 L532.02,277.03 L532.31,276.83 L532.60,276.63
		L532.89,276.51 L533.18,276.45 L533.47,276.28 L533.76,276.28 L534.05,276.02 L534.34,276.01 L534.63,275.67 L534.91,275.50
		L535.20,275.41 L535.49,275.18 L535.78,275.09 L536.07,274.89 L536.36,274.29 L536.65,273.85 L536.94,273.71 L537.23,273.65
		L537.52,272.95 L537.81,272.64 L538.10,272.35 L538.38,272.26 L538.67,271.57 L538.96,271.55 L539.25,271.54 L539.54,271.53
		L539.83,270.61 L540.12,270.50 L540.41,270.22 L540.70,270.13 L540.99,269.72 L541.28,269.67 L541.57,269.04 L541.85,269.04
		L542.14,268.87 L542.43,268.42 L542.72,268.28 L543.01,267.82 L543.30,267.60 L543.59,267.56 L543.88,267.48 L544.17,267.24
		L544.46,266.39 L544.75,266.06 L545.04,266.05 L545.32,265.80 L545.61,265.66 L545.90,265.62 L546.19,263.94 L546.48,263.72
		L546.77,263.50 L547.06,263.47 L547.35,263.29 L547.64,263.12 L547.93,262.51 L548.22,262.36 L548.51,262.16 L548.79,262.00
		L549.08,261.99 L549.37,261.80 L549.66,261.54 L549.95,261.46 L550.24,261.38 L550.53,260.39 L550.82,260.36 L551.11,259.72
		L551.40,259.50 L551.69,259.42 L551.98,259.29 L552.26,259.29 L552.55,258.65 L552.84,258.55 L553.13,258.13 L553.42,258.12
		L553.71,257.90 L554.00,257.06 L554.29,256.82 L554.58,256.71 L554.87,256.62 L555.16,256.52 L555.45,256.30 L555.73,256.13
		L556.02,256.13 L556.31,255.57 L556.60,253.01 L556.89,252.58 L557.18,252.38 L557.47,252.37 L557.76,252.34 L558.05,251.57
		L558.34,250.44 L558.63,250.31 L558.92,249.92 L559.20,248.44 L559.49,247.30 L559.78,246.99 L560.07,246.67 L560.36,245.67
		L560.65,245.07 L560.94,243.56 L561.23,242.65 L561.52,241.38 L561.81,240.69 L562.10,240.35 L562.39,239.34 L562.67,239.21
		L562.96,238.76 L563.25,236.05 L563.54,235.77 L563.83,234.57 L564.12,232.67 L564.41,232.07 L564.70,230.25 L564.99,227.61
		L565.28,225.53 L565.57,225.28 L565.86,224.32 L566.14,224.21 L566.43,223.07 L566.72,220.82 L567.01,220.06 L567.30,218.83
		L567.59,215.34 L567.88,214.38 L568.17,214.34 L568.46,214.20 L568.75,211.29 L569.04,207.99 L569.33,206.13 L569.61,205.99
		L569.90,205.41 L570.19,204.95 L570.48,202.89 L570.77,197.71 L571.06,191.93 L571.35,188.27 L571.64,183.60 L571.93,171.33
		L572.22,170.32 L572.51,169.75 L572.80,134.45 L573.09,131.39 L573.37,130.63 L573.66,98.11 L573.95,84.82 L574.08,54.01
		 '/></g>
	</g>
<g fill="none" color="white" stroke="rgb(148,   0, 211)" stroke-width="2.00" stroke-linecap="butt" stroke-linejoin="miter">
</g>
<g fill="none" color="black" stroke="currentColor" stroke-width="2.00" stroke-linecap="butt" stroke-linejoin="miter">
</g>
<g fill="none" color="black" stroke="black" stroke-width="1.00" stroke-linecap="butt" stroke-linejoin="miter">
</g>
<g fill="none" color="black" stroke="currentColor" stroke-width="1.00" stroke-linecap="butt" stroke-linejoin="miter">
	<path stroke='black'  d='M72.53,54.01 L72.53,406.84 L574.82,406.84 L574.82,54.01 L72.53,54.01 Z  '/></g>
<g fill="none" color="black" stroke="currentColor" stroke-width="1.00" stroke-linecap="butt" stroke-linejoin="miter">
	<g transform="translate(323.67,30.91)" stroke="none" fill="black" font-family="Arial" font-size="12.00"  text-anchor="middle">
		<text><tspan font-family="Arial" >Quantiles for non-typechecking times</tspan></text>
	</g>
</g>
<g fill="none" color="black" stroke="currentColor" stroke-width="1.00" stroke-linecap="butt" stroke-linejoin="miter">
</g>
</g>
</svg>

