<?xml version="1.0" encoding="utf-8"  standalone="no"?>
<svg 
 width="600" height="480"
 viewBox="0 0 600 480"
 xmlns="http://www.w3.org/2000/svg"
 xmlns:xlink="http://www.w3.org/1999/xlink"
>

<title>Gnuplot</title>
<desc>Produced by GNUPLOT 5.4 patchlevel 1 </desc>

<g id="gnuplot_canvas">

<rect x="0" y="0" width="600" height="480" fill="none"/>
<defs>

	<circle id='gpDot' r='0.5' stroke-width='0.5' stroke='currentColor'/>
	<path id='gpPt0' stroke-width='0.222' stroke='currentColor' d='M-1,0 h2 M0,-1 v2'/>
	<path id='gpPt1' stroke-width='0.222' stroke='currentColor' d='M-1,-1 L1,1 M1,-1 L-1,1'/>
	<path id='gpPt2' stroke-width='0.222' stroke='currentColor' d='M-1,0 L1,0 M0,-1 L0,1 M-1,-1 L1,1 M-1,1 L1,-1'/>
	<rect id='gpPt3' stroke-width='0.222' stroke='currentColor' x='-1' y='-1' width='2' height='2'/>
	<rect id='gpPt4' stroke-width='0.222' stroke='currentColor' fill='currentColor' x='-1' y='-1' width='2' height='2'/>
	<circle id='gpPt5' stroke-width='0.222' stroke='currentColor' cx='0' cy='0' r='1'/>
	<use xlink:href='#gpPt5' id='gpPt6' fill='currentColor' stroke='none'/>
	<path id='gpPt7' stroke-width='0.222' stroke='currentColor' d='M0,-1.33 L-1.33,0.67 L1.33,0.67 z'/>
	<use xlink:href='#gpPt7' id='gpPt8' fill='currentColor' stroke='none'/>
	<use xlink:href='#gpPt7' id='gpPt9' stroke='currentColor' transform='rotate(180)'/>
	<use xlink:href='#gpPt9' id='gpPt10' fill='currentColor' stroke='none'/>
	<use xlink:href='#gpPt3' id='gpPt11' stroke='currentColor' transform='rotate(45)'/>
	<use xlink:href='#gpPt11' id='gpPt12' fill='currentColor' stroke='none'/>
	<path id='gpPt13' stroke-width='0.222' stroke='currentColor' d='M0,1.330 L1.265,0.411 L0.782,-1.067 L-0.782,-1.076 L-1.265,0.411 z'/>
	<use xlink:href='#gpPt13' id='gpPt14' fill='currentColor' stroke='none'/>
	<filter id='textbox' filterUnits='objectBoundingBox' x='0' y='0' height='1' width='1'>
	  <feFlood flood-color='white' flood-opacity='1' result='bgnd'/>
	  <feComposite in='SourceGraphic' in2='bgnd' operator='atop'/>
	</filter>
	<filter id='greybox' filterUnits='objectBoundingBox' x='0' y='0' height='1' width='1'>
	  <feFlood flood-color='lightgrey' flood-opacity='1' result='grey'/>
	  <feComposite in='SourceGraphic' in2='grey' operator='atop'/>
	</filter>
</defs>
<g fill="none" color="white" stroke="currentColor" stroke-width="1.00" stroke-linecap="butt" stroke-linejoin="miter">
</g>
<g fill="none" color="black" stroke="currentColor" stroke-width="1.00" stroke-linecap="butt" stroke-linejoin="miter">
</g>
<g fill="none" color="black" stroke="black" stroke-width="0.50" stroke-linecap="butt" stroke-linejoin="miter">
</g>
<g fill="none" color="gray" stroke="currentColor" stroke-width="0.50" stroke-linecap="butt" stroke-linejoin="miter">
	<path stroke='gray' stroke-dasharray='2,4' class="gridline"  d='M72.53,406.84 L574.82,406.84  '/></g>
<g fill="none" color="gray" stroke="gray" stroke-width="1.00" stroke-linecap="butt" stroke-linejoin="miter">
</g>
<g fill="none" color="black" stroke="currentColor" stroke-width="1.00" stroke-linecap="butt" stroke-linejoin="miter">
	<path stroke='black'  d='M72.53,406.84 L81.53,406.84 M574.82,406.84 L565.82,406.84  '/>	<g transform="translate(64.14,410.74)" stroke="none" fill="black" font-family="Arial" font-size="12.00"  text-anchor="end">
		<text><tspan font-family="Arial" > 0</tspan></text>
	</g>
</g>
<g fill="none" color="black" stroke="currentColor" stroke-width="1.00" stroke-linecap="butt" stroke-linejoin="miter">
</g>
<g fill="none" color="black" stroke="black" stroke-width="0.50" stroke-linecap="butt" stroke-linejoin="miter">
</g>
<g fill="none" color="gray" stroke="currentColor" stroke-width="0.50" stroke-linecap="butt" stroke-linejoin="miter">
	<path stroke='gray' stroke-dasharray='2,4' class="gridline"  d='M72.53,336.27 L574.82,336.27  '/></g>
<g fill="none" color="gray" stroke="gray" stroke-width="1.00" stroke-linecap="butt" stroke-linejoin="miter">
</g>
<g fill="none" color="black" stroke="currentColor" stroke-width="1.00" stroke-linecap="butt" stroke-linejoin="miter">
	<path stroke='black'  d='M72.53,336.27 L81.53,336.27 M574.82,336.27 L565.82,336.27  '/>	<g transform="translate(64.14,340.17)" stroke="none" fill="black" font-family="Arial" font-size="12.00"  text-anchor="end">
		<text><tspan font-family="Arial" > 0.2</tspan></text>
	</g>
</g>
<g fill="none" color="black" stroke="currentColor" stroke-width="1.00" stroke-linecap="butt" stroke-linejoin="miter">
</g>
<g fill="none" color="black" stroke="black" stroke-width="0.50" stroke-linecap="butt" stroke-linejoin="miter">
</g>
<g fill="none" color="gray" stroke="currentColor" stroke-width="0.50" stroke-linecap="butt" stroke-linejoin="miter">
	<path stroke='gray' stroke-dasharray='2,4' class="gridline"  d='M72.53,265.71 L574.82,265.71  '/></g>
<g fill="none" color="gray" stroke="gray" stroke-width="1.00" stroke-linecap="butt" stroke-linejoin="miter">
</g>
<g fill="none" color="black" stroke="currentColor" stroke-width="1.00" stroke-linecap="butt" stroke-linejoin="miter">
	<path stroke='black'  d='M72.53,265.71 L81.53,265.71 M574.82,265.71 L565.82,265.71  '/>	<g transform="translate(64.14,269.61)" stroke="none" fill="black" font-family="Arial" font-size="12.00"  text-anchor="end">
		<text><tspan font-family="Arial" > 0.4</tspan></text>
	</g>
</g>
<g fill="none" color="black" stroke="currentColor" stroke-width="1.00" stroke-linecap="butt" stroke-linejoin="miter">
</g>
<g fill="none" color="black" stroke="black" stroke-width="0.50" stroke-linecap="butt" stroke-linejoin="miter">
</g>
<g fill="none" color="gray" stroke="currentColor" stroke-width="0.50" stroke-linecap="butt" stroke-linejoin="miter">
	<path stroke='gray' stroke-dasharray='2,4' class="gridline"  d='M72.53,195.14 L574.82,195.14  '/></g>
<g fill="none" color="gray" stroke="gray" stroke-width="1.00" stroke-linecap="butt" stroke-linejoin="miter">
</g>
<g fill="none" color="black" stroke="currentColor" stroke-width="1.00" stroke-linecap="butt" stroke-linejoin="miter">
	<path stroke='black'  d='M72.53,195.14 L81.53,195.14 M574.82,195.14 L565.82,195.14  '/>	<g transform="translate(64.14,199.04)" stroke="none" fill="black" font-family="Arial" font-size="12.00"  text-anchor="end">
		<text><tspan font-family="Arial" > 0.6</tspan></text>
	</g>
</g>
<g fill="none" color="black" stroke="currentColor" stroke-width="1.00" stroke-linecap="butt" stroke-linejoin="miter">
</g>
<g fill="none" color="black" stroke="black" stroke-width="0.50" stroke-linecap="butt" stroke-linejoin="miter">
</g>
<g fill="none" color="gray" stroke="currentColor" stroke-width="0.50" stroke-linecap="butt" stroke-linejoin="miter">
	<path stroke='gray' stroke-dasharray='2,4' class="gridline"  d='M72.53,124.58 L574.82,124.58  '/></g>
<g fill="none" color="gray" stroke="gray" stroke-width="1.00" stroke-linecap="butt" stroke-linejoin="miter">
</g>
<g fill="none" color="black" stroke="currentColor" stroke-width="1.00" stroke-linecap="butt" stroke-linejoin="miter">
	<path stroke='black'  d='M72.53,124.58 L81.53,124.58 M574.82,124.58 L565.82,124.58  '/>	<g transform="translate(64.14,128.48)" stroke="none" fill="black" font-family="Arial" font-size="12.00"  text-anchor="end">
		<text><tspan font-family="Arial" > 0.8</tspan></text>
	</g>
</g>
<g fill="none" color="black" stroke="currentColor" stroke-width="1.00" stroke-linecap="butt" stroke-linejoin="miter">
</g>
<g fill="none" color="black" stroke="black" stroke-width="0.50" stroke-linecap="butt" stroke-linejoin="miter">
</g>
<g fill="none" color="gray" stroke="currentColor" stroke-width="0.50" stroke-linecap="butt" stroke-linejoin="miter">
	<path stroke='gray' stroke-dasharray='2,4' class="gridline"  d='M72.53,54.01 L574.82,54.01  '/></g>
<g fill="none" color="gray" stroke="gray" stroke-width="1.00" stroke-linecap="butt" stroke-linejoin="miter">
</g>
<g fill="none" color="black" stroke="currentColor" stroke-width="1.00" stroke-linecap="butt" stroke-linejoin="miter">
	<path stroke='black'  d='M72.53,54.01 L81.53,54.01 M574.82,54.01 L565.82,54.01  '/>	<g transform="translate(64.14,57.91)" stroke="none" fill="black" font-family="Arial" font-size="12.00"  text-anchor="end">
		<text><tspan font-family="Arial" > 1</tspan></text>
	</g>
</g>
<g fill="none" color="black" stroke="currentColor" stroke-width="1.00" stroke-linecap="butt" stroke-linejoin="miter">
</g>
<g fill="none" color="black" stroke="black" stroke-width="0.50" stroke-linecap="butt" stroke-linejoin="miter">
</g>
<g fill="none" color="gray" stroke="currentColor" stroke-width="0.50" stroke-linecap="butt" stroke-linejoin="miter">
	<path stroke='gray' stroke-dasharray='2,4' class="gridline"  d='M72.53,406.84 L72.53,54.01  '/></g>
<g fill="none" color="gray" stroke="gray" stroke-width="1.00" stroke-linecap="butt" stroke-linejoin="miter">
</g>
<g fill="none" color="black" stroke="currentColor" stroke-width="1.00" stroke-linecap="butt" stroke-linejoin="miter">
	<path stroke='black'  d='M72.53,406.84 L72.53,397.84 M72.53,54.01 L72.53,63.01  '/>	<g transform="translate(68.63,415.23) rotate(90)" stroke="none" fill="black" font-family="Arial" font-size="12.00"  text-anchor="start">
		<text><tspan font-family="Arial" > 0</tspan></text>
	</g>
</g>
<g fill="none" color="black" stroke="currentColor" stroke-width="1.00" stroke-linecap="butt" stroke-linejoin="miter">
</g>
<g fill="none" color="black" stroke="black" stroke-width="0.50" stroke-linecap="butt" stroke-linejoin="miter">
</g>
<g fill="none" color="gray" stroke="currentColor" stroke-width="0.50" stroke-linecap="butt" stroke-linejoin="miter">
	<path stroke='gray' stroke-dasharray='2,4' class="gridline"  d='M122.76,406.84 L122.76,54.01  '/></g>
<g fill="none" color="gray" stroke="gray" stroke-width="1.00" stroke-linecap="butt" stroke-linejoin="miter">
</g>
<g fill="none" color="black" stroke="currentColor" stroke-width="1.00" stroke-linecap="butt" stroke-linejoin="miter">
	<path stroke='black'  d='M122.76,406.84 L122.76,397.84 M122.76,54.01 L122.76,63.01  '/>	<g transform="translate(118.86,415.23) rotate(90)" stroke="none" fill="black" font-family="Arial" font-size="12.00"  text-anchor="start">
		<text><tspan font-family="Arial" > 10</tspan></text>
	</g>
</g>
<g fill="none" color="black" stroke="currentColor" stroke-width="1.00" stroke-linecap="butt" stroke-linejoin="miter">
</g>
<g fill="none" color="black" stroke="black" stroke-width="0.50" stroke-linecap="butt" stroke-linejoin="miter">
</g>
<g fill="none" color="gray" stroke="currentColor" stroke-width="0.50" stroke-linecap="butt" stroke-linejoin="miter">
	<path stroke='gray' stroke-dasharray='2,4' class="gridline"  d='M172.99,406.84 L172.99,54.01  '/></g>
<g fill="none" color="gray" stroke="gray" stroke-width="1.00" stroke-linecap="butt" stroke-linejoin="miter">
</g>
<g fill="none" color="black" stroke="currentColor" stroke-width="1.00" stroke-linecap="butt" stroke-linejoin="miter">
	<path stroke='black'  d='M172.99,406.84 L172.99,397.84 M172.99,54.01 L172.99,63.01  '/>	<g transform="translate(169.09,415.23) rotate(90)" stroke="none" fill="black" font-family="Arial" font-size="12.00"  text-anchor="start">
		<text><tspan font-family="Arial" > 20</tspan></text>
	</g>
</g>
<g fill="none" color="black" stroke="currentColor" stroke-width="1.00" stroke-linecap="butt" stroke-linejoin="miter">
</g>
<g fill="none" color="black" stroke="black" stroke-width="0.50" stroke-linecap="butt" stroke-linejoin="miter">
</g>
<g fill="none" color="gray" stroke="currentColor" stroke-width="0.50" stroke-linecap="butt" stroke-linejoin="miter">
	<path stroke='gray' stroke-dasharray='2,4' class="gridline"  d='M223.22,406.84 L223.22,54.01  '/></g>
<g fill="none" color="gray" stroke="gray" stroke-width="1.00" stroke-linecap="butt" stroke-linejoin="miter">
</g>
<g fill="none" color="black" stroke="currentColor" stroke-width="1.00" stroke-linecap="butt" stroke-linejoin="miter">
	<path stroke='black'  d='M223.22,406.84 L223.22,397.84 M223.22,54.01 L223.22,63.01  '/>	<g transform="translate(219.32,415.23) rotate(90)" stroke="none" fill="black" font-family="Arial" font-size="12.00"  text-anchor="start">
		<text><tspan font-family="Arial" > 30</tspan></text>
	</g>
</g>
<g fill="none" color="black" stroke="currentColor" stroke-width="1.00" stroke-linecap="butt" stroke-linejoin="miter">
</g>
<g fill="none" color="black" stroke="black" stroke-width="0.50" stroke-linecap="butt" stroke-linejoin="miter">
</g>
<g fill="none" color="gray" stroke="currentColor" stroke-width="0.50" stroke-linecap="butt" stroke-linejoin="miter">
	<path stroke='gray' stroke-dasharray='2,4' class="gridline"  d='M273.45,406.84 L273.45,54.01  '/></g>
<g fill="none" color="gray" stroke="gray" stroke-width="1.00" stroke-linecap="butt" stroke-linejoin="miter">
</g>
<g fill="none" color="black" stroke="currentColor" stroke-width="1.00" stroke-linecap="butt" stroke-linejoin="miter">
	<path stroke='black'  d='M273.45,406.84 L273.45,397.84 M273.45,54.01 L273.45,63.01  '/>	<g transform="translate(269.55,415.23) rotate(90)" stroke="none" fill="black" font-family="Arial" font-size="12.00"  text-anchor="start">
		<text><tspan font-family="Arial" > 40</tspan></text>
	</g>
</g>
<g fill="none" color="black" stroke="currentColor" stroke-width="1.00" stroke-linecap="butt" stroke-linejoin="miter">
</g>
<g fill="none" color="black" stroke="black" stroke-width="0.50" stroke-linecap="butt" stroke-linejoin="miter">
</g>
<g fill="none" color="gray" stroke="currentColor" stroke-width="0.50" stroke-linecap="butt" stroke-linejoin="miter">
	<path stroke='gray' stroke-dasharray='2,4' class="gridline"  d='M323.68,406.84 L323.68,54.01  '/></g>
<g fill="none" color="gray" stroke="gray" stroke-width="1.00" stroke-linecap="butt" stroke-linejoin="miter">
</g>
<g fill="none" color="black" stroke="currentColor" stroke-width="1.00" stroke-linecap="butt" stroke-linejoin="miter">
	<path stroke='black'  d='M323.68,406.84 L323.68,397.84 M323.68,54.01 L323.68,63.01  '/>	<g transform="translate(319.78,415.23) rotate(90)" stroke="none" fill="black" font-family="Arial" font-size="12.00"  text-anchor="start">
		<text><tspan font-family="Arial" > 50</tspan></text>
	</g>
</g>
<g fill="none" color="black" stroke="currentColor" stroke-width="1.00" stroke-linecap="butt" stroke-linejoin="miter">
</g>
<g fill="none" color="black" stroke="black" stroke-width="0.50" stroke-linecap="butt" stroke-linejoin="miter">
</g>
<g fill="none" color="gray" stroke="currentColor" stroke-width="0.50" stroke-linecap="butt" stroke-linejoin="miter">
	<path stroke='gray' stroke-dasharray='2,4' class="gridline"  d='M373.90,406.84 L373.90,54.01  '/></g>
<g fill="none" color="gray" stroke="gray" stroke-width="1.00" stroke-linecap="butt" stroke-linejoin="miter">
</g>
<g fill="none" color="black" stroke="currentColor" stroke-width="1.00" stroke-linecap="butt" stroke-linejoin="miter">
	<path stroke='black'  d='M373.90,406.84 L373.90,397.84 M373.90,54.01 L373.90,63.01  '/>	<g transform="translate(370.00,415.23) rotate(90)" stroke="none" fill="black" font-family="Arial" font-size="12.00"  text-anchor="start">
		<text><tspan font-family="Arial" > 60</tspan></text>
	</g>
</g>
<g fill="none" color="black" stroke="currentColor" stroke-width="1.00" stroke-linecap="butt" stroke-linejoin="miter">
</g>
<g fill="none" color="black" stroke="black" stroke-width="0.50" stroke-linecap="butt" stroke-linejoin="miter">
</g>
<g fill="none" color="gray" stroke="currentColor" stroke-width="0.50" stroke-linecap="butt" stroke-linejoin="miter">
	<path stroke='gray' stroke-dasharray='2,4' class="gridline"  d='M424.13,406.84 L424.13,54.01  '/></g>
<g fill="none" color="gray" stroke="gray" stroke-width="1.00" stroke-linecap="butt" stroke-linejoin="miter">
</g>
<g fill="none" color="black" stroke="currentColor" stroke-width="1.00" stroke-linecap="butt" stroke-linejoin="miter">
	<path stroke='black'  d='M424.13,406.84 L424.13,397.84 M424.13,54.01 L424.13,63.01  '/>	<g transform="translate(420.23,415.23) rotate(90)" stroke="none" fill="black" font-family="Arial" font-size="12.00"  text-anchor="start">
		<text><tspan font-family="Arial" > 70</tspan></text>
	</g>
</g>
<g fill="none" color="black" stroke="currentColor" stroke-width="1.00" stroke-linecap="butt" stroke-linejoin="miter">
</g>
<g fill="none" color="black" stroke="black" stroke-width="0.50" stroke-linecap="butt" stroke-linejoin="miter">
</g>
<g fill="none" color="gray" stroke="currentColor" stroke-width="0.50" stroke-linecap="butt" stroke-linejoin="miter">
	<path stroke='gray' stroke-dasharray='2,4' class="gridline"  d='M474.36,406.84 L474.36,54.01  '/></g>
<g fill="none" color="gray" stroke="gray" stroke-width="1.00" stroke-linecap="butt" stroke-linejoin="miter">
</g>
<g fill="none" color="black" stroke="currentColor" stroke-width="1.00" stroke-linecap="butt" stroke-linejoin="miter">
	<path stroke='black'  d='M474.36,406.84 L474.36,397.84 M474.36,54.01 L474.36,63.01  '/>	<g transform="translate(470.46,415.23) rotate(90)" stroke="none" fill="black" font-family="Arial" font-size="12.00"  text-anchor="start">
		<text><tspan font-family="Arial" > 80</tspan></text>
	</g>
</g>
<g fill="none" color="black" stroke="currentColor" stroke-width="1.00" stroke-linecap="butt" stroke-linejoin="miter">
</g>
<g fill="none" color="black" stroke="black" stroke-width="0.50" stroke-linecap="butt" stroke-linejoin="miter">
</g>
<g fill="none" color="gray" stroke="currentColor" stroke-width="0.50" stroke-linecap="butt" stroke-linejoin="miter">
	<path stroke='gray' stroke-dasharray='2,4' class="gridline"  d='M524.59,406.84 L524.59,81.01 M524.59,63.01 L524.59,54.01  '/></g>
<g fill="none" color="gray" stroke="gray" stroke-width="1.00" stroke-linecap="butt" stroke-linejoin="miter">
</g>
<g fill="none" color="black" stroke="currentColor" stroke-width="1.00" stroke-linecap="butt" stroke-linejoin="miter">
	<path stroke='black'  d='M524.59,406.84 L524.59,397.84 M524.59,54.01 L524.59,63.01  '/>	<g transform="translate(520.69,415.23) rotate(90)" stroke="none" fill="black" font-family="Arial" font-size="12.00"  text-anchor="start">
		<text><tspan font-family="Arial" > 90</tspan></text>
	</g>
</g>
<g fill="none" color="black" stroke="currentColor" stroke-width="1.00" stroke-linecap="butt" stroke-linejoin="miter">
</g>
<g fill="none" color="black" stroke="black" stroke-width="0.50" stroke-linecap="butt" stroke-linejoin="miter">
</g>
<g fill="none" color="gray" stroke="currentColor" stroke-width="0.50" stroke-linecap="butt" stroke-linejoin="miter">
	<path stroke='gray' stroke-dasharray='2,4' class="gridline"  d='M574.82,406.84 L574.82,54.01  '/></g>
<g fill="none" color="gray" stroke="gray" stroke-width="1.00" stroke-linecap="butt" stroke-linejoin="miter">
</g>
<g fill="none" color="black" stroke="currentColor" stroke-width="1.00" stroke-linecap="butt" stroke-linejoin="miter">
	<path stroke='black'  d='M574.82,406.84 L574.82,397.84 M574.82,54.01 L574.82,63.01  '/>	<g transform="translate(570.92,415.23) rotate(90)" stroke="none" fill="black" font-family="Arial" font-size="12.00"  text-anchor="start">
		<text><tspan font-family="Arial" > 100</tspan></text>
	</g>
</g>
<g fill="none" color="black" stroke="currentColor" stroke-width="1.00" stroke-linecap="butt" stroke-linejoin="miter">
</g>
<g fill="none" color="black" stroke="currentColor" stroke-width="1.00" stroke-linecap="butt" stroke-linejoin="miter">
	<path stroke='black'  d='M72.53,54.01 L72.53,406.84 L574.82,406.84 L574.82,54.01 L72.53,54.01 Z  '/></g>
<g fill="none" color="black" stroke="currentColor" stroke-width="1.00" stroke-linecap="butt" stroke-linejoin="miter">
	<g transform="translate(19.18,230.43) rotate(270)" stroke="none" fill="black" font-family="Arial" font-size="12.00"  text-anchor="middle">
		<text><tspan font-family="Arial" >after/before</tspan></text>
	</g>
</g>
<g fill="none" color="black" stroke="currentColor" stroke-width="1.00" stroke-linecap="butt" stroke-linejoin="miter">
	<g transform="translate(323.67,471.30)" stroke="none" fill="black" font-family="Arial" font-size="12.00"  text-anchor="middle">
		<text><tspan font-family="Arial" >Quantiles</tspan></text>
	</g>
</g>
<g fill="none" color="black" stroke="currentColor" stroke-width="1.00" stroke-linecap="butt" stroke-linejoin="miter">
</g>
	<g id="gnuplot_plot_1" ><title>CDF</title>
<g fill="none" color="black" stroke="currentColor" stroke-width="1.00" stroke-linecap="butt" stroke-linejoin="miter">
	<g transform="translate(507.09,75.91)" stroke="none" fill="black" font-family="Arial" font-size="12.00"  text-anchor="end">
		<text><tspan font-family="Arial" >CDF</tspan></text>
	</g>
</g>
<g fill="none" color="black" stroke="currentColor" stroke-width="1.00" stroke-linecap="butt" stroke-linejoin="miter">
	<path stroke='rgb(148,   0, 211)'  d='M515.48,72.01 L558.04,72.01 M72.53,405.73 L72.82,375.55 L73.11,373.66 L73.40,371.23 L73.69,370.59 L73.98,369.63
		L74.27,369.14 L74.55,368.92 L74.84,368.82 L75.13,368.73 L75.42,367.69 L75.71,367.67 L76.00,367.64 L76.29,367.64
		L76.58,367.64 L76.87,367.64 L77.16,367.56 L77.45,367.48 L77.74,367.30 L78.02,367.04 L78.31,366.64 L78.60,366.64
		L78.89,366.51 L79.18,366.44 L79.47,366.30 L79.76,366.20 L80.05,366.11 L80.34,366.01 L80.63,365.97 L80.92,365.83
		L81.21,365.74 L81.49,365.71 L81.78,365.66 L82.07,365.60 L82.36,365.57 L82.65,364.98 L82.94,364.85 L83.23,364.81
		L83.52,364.78 L83.81,364.51 L84.10,364.50 L84.39,364.28 L84.68,364.21 L84.96,364.18 L85.25,363.94 L85.54,363.86
		L85.83,363.77 L86.12,363.29 L86.41,363.21 L86.70,363.16 L86.99,363.15 L87.28,363.14 L87.57,362.97 L87.86,362.87
		L88.15,362.84 L88.43,362.81 L88.72,362.80 L89.01,362.76 L89.30,362.74 L89.59,362.74 L89.88,362.74 L90.17,362.74
		L90.46,362.74 L90.75,362.74 L91.04,362.70 L91.33,362.66 L91.62,362.66 L91.90,362.62 L92.19,362.50 L92.48,362.35
		L92.77,362.22 L93.06,362.16 L93.35,362.14 L93.64,362.05 L93.93,361.97 L94.22,361.89 L94.51,361.61 L94.80,361.59
		L95.09,361.42 L95.37,360.97 L95.66,360.63 L95.95,360.57 L96.24,359.80 L96.53,359.66 L96.82,359.59 L97.11,359.33
		L97.40,359.20 L97.69,359.07 L97.98,358.98 L98.27,358.66 L98.56,358.53 L98.84,357.99 L99.13,357.98 L99.42,357.53
		L99.71,357.42 L100.00,357.41 L100.29,357.34 L100.58,357.11 L100.87,357.08 L101.16,357.05 L101.45,357.04 L101.74,356.98
		L102.03,356.95 L102.31,356.88 L102.60,356.84 L102.89,356.81 L103.18,356.79 L103.47,356.78 L103.76,356.76 L104.05,356.75
		L104.34,356.61 L104.63,356.59 L104.92,356.53 L105.21,356.53 L105.50,356.52 L105.78,356.52 L106.07,356.51 L106.36,356.49
		L106.65,356.48 L106.94,356.48 L107.23,356.46 L107.52,356.46 L107.81,356.44 L108.10,356.44 L108.39,356.44 L108.68,356.44
		L108.97,356.44 L109.25,356.44 L109.54,356.44 L109.83,356.44 L110.12,356.44 L110.41,356.44 L110.70,356.44 L110.99,356.44
		L111.28,356.44 L111.57,356.44 L111.86,356.44 L112.15,356.44 L112.44,356.44 L112.72,356.44 L113.01,356.44 L113.30,356.44
		L113.59,356.44 L113.88,356.39 L114.17,356.38 L114.46,356.35 L114.75,356.34 L115.04,356.33 L115.33,356.04 L115.62,355.50
		L115.91,355.49 L116.19,353.76 L116.48,353.76 L116.77,353.03 L117.06,352.90 L117.35,352.55 L117.64,352.34 L117.93,352.24
		L118.22,351.97 L118.51,351.96 L118.80,351.76 L119.09,351.16 L119.38,350.97 L119.66,350.64 L119.95,350.30 L120.24,349.60
		L120.53,349.34 L120.82,349.32 L121.11,349.21 L121.40,349.17 L121.69,348.99 L121.98,348.98 L122.27,348.95 L122.56,348.87
		L122.85,348.47 L123.13,348.26 L123.42,348.13 L123.71,348.10 L124.00,348.03 L124.29,348.03 L124.58,348.03 L124.87,348.03
		L125.16,348.03 L125.45,348.03 L125.74,347.95 L126.03,347.94 L126.32,347.76 L126.61,347.44 L126.89,347.06 L127.18,346.48
		L127.47,346.43 L127.76,346.33 L128.05,346.31 L128.34,345.71 L128.63,344.52 L128.92,344.13 L129.21,343.86 L129.50,343.19
		L129.79,342.69 L130.07,342.50 L130.36,342.25 L130.65,342.22 L130.94,341.64 L131.23,341.12 L131.52,340.93 L131.81,340.91
		L132.10,340.53 L132.39,340.41 L132.68,340.32 L132.97,339.58 L133.26,339.42 L133.55,338.46 L133.83,338.33 L134.12,338.33
		L134.41,338.20 L134.70,337.85 L134.99,337.84 L135.28,337.65 L135.57,336.92 L135.86,336.31 L136.15,336.27 L136.44,336.05
		L136.73,335.90 L137.01,335.78 L137.30,335.43 L137.59,335.42 L137.88,335.31 L138.17,335.29 L138.46,335.18 L138.75,335.18
		L139.04,334.93 L139.33,334.46 L139.62,334.40 L139.91,334.35 L140.20,334.22 L140.49,333.88 L140.77,333.77 L141.06,333.47
		L141.35,333.33 L141.64,332.77 L141.93,332.59 L142.22,332.53 L142.51,331.95 L142.80,331.81 L143.09,331.34 L143.38,330.78
		L143.67,330.49 L143.96,330.47 L144.24,330.25 L144.53,330.10 L144.82,329.68 L145.11,329.67 L145.40,329.38 L145.69,329.23
		L145.98,328.87 L146.27,328.84 L146.56,328.49 L146.85,328.48 L147.14,328.46 L147.43,328.46 L147.71,328.46 L148.00,328.46
		L148.29,328.43 L148.58,328.43 L148.87,328.43 L149.16,328.43 L149.45,328.43 L149.74,328.43 L150.03,328.43 L150.32,328.43
		L150.61,328.36 L150.90,328.26 L151.18,328.24 L151.47,328.12 L151.76,327.81 L152.05,327.65 L152.34,326.71 L152.63,326.33
		L152.92,326.32 L153.21,326.24 L153.50,325.17 L153.79,325.17 L154.08,324.77 L154.37,324.49 L154.65,324.36 L154.94,324.33
		L155.23,324.21 L155.52,324.18 L155.81,324.16 L156.10,324.14 L156.39,324.14 L156.68,323.89 L156.97,323.82 L157.26,323.77
		L157.55,323.71 L157.84,323.41 L158.12,323.14 L158.41,323.08 L158.70,322.83 L158.99,322.64 L159.28,322.55 L159.57,322.50
		L159.86,322.47 L160.15,322.03 L160.44,321.95 L160.73,321.95 L161.02,321.80 L161.31,321.60 L161.59,321.59 L161.88,321.50
		L162.17,321.31 L162.46,321.29 L162.75,321.08 L163.04,321.06 L163.33,321.00 L163.62,320.99 L163.91,320.98 L164.20,320.91
		L164.49,320.91 L164.78,320.89 L165.06,320.84 L165.35,320.79 L165.64,320.71 L165.93,320.67 L166.22,320.26 L166.51,319.95
		L166.80,319.73 L167.09,319.65 L167.38,319.62 L167.67,319.55 L167.96,319.44 L168.25,319.38 L168.53,319.11 L168.82,319.02
		L169.11,318.86 L169.40,318.83 L169.69,318.76 L169.98,318.75 L170.27,318.75 L170.56,318.75 L170.85,318.71 L171.14,318.67
		L171.43,318.67 L171.72,318.67 L172.01,318.63 L172.29,318.63 L172.58,318.63 L172.87,318.63 L173.16,318.63 L173.45,318.63
		L173.74,318.63 L174.03,318.63 L174.32,318.63 L174.61,318.63 L174.90,318.63 L175.19,318.63 L175.47,318.63 L175.76,318.63
		L176.05,318.59 L176.34,318.33 L176.63,318.17 L176.92,318.08 L177.21,318.06 L177.50,318.03 L177.79,317.95 L178.08,317.93
		L178.37,317.40 L178.66,317.30 L178.95,317.15 L179.23,317.04 L179.52,316.94 L179.81,316.55 L180.10,316.40 L180.39,316.11
		L180.68,315.96 L180.97,315.93 L181.26,315.52 L181.55,315.31 L181.84,315.21 L182.13,314.85 L182.41,314.74 L182.70,314.52
		L182.99,314.36 L183.28,314.33 L183.57,314.26 L183.86,314.11 L184.15,314.02 L184.44,313.92 L184.73,313.89 L185.02,313.83
		L185.31,313.58 L185.60,313.52 L185.88,313.41 L186.17,313.06 L186.46,313.03 L186.75,313.01 L187.04,312.97 L187.33,312.38
		L187.62,312.37 L187.91,312.32 L188.20,312.26 L188.49,312.15 L188.78,311.83 L189.07,311.71 L189.36,311.09 L189.64,310.91
		L189.93,310.85 L190.22,310.73 L190.51,310.61 L190.80,310.59 L191.09,310.49 L191.38,310.49 L191.67,310.32 L191.96,310.21
		L192.25,310.06 L192.54,309.95 L192.82,309.69 L193.11,309.60 L193.40,309.37 L193.69,309.00 L193.98,308.99 L194.27,308.90
		L194.56,308.82 L194.85,308.78 L195.14,308.63 L195.43,308.39 L195.72,308.36 L196.01,308.07 L196.30,307.86 L196.58,307.86
		L196.87,307.84 L197.16,307.67 L197.45,307.50 L197.74,307.11 L198.03,306.90 L198.32,306.84 L198.61,306.70 L198.90,306.69
		L199.19,306.39 L199.48,306.30 L199.77,306.20 L200.05,306.18 L200.34,306.18 L200.63,306.13 L200.92,306.08 L201.21,306.03
		L201.50,306.03 L201.79,306.03 L202.08,306.03 L202.37,306.03 L202.66,306.03 L202.95,306.03 L203.24,305.98 L203.52,305.91
		L203.81,305.85 L204.10,305.85 L204.39,305.80 L204.68,305.75 L204.97,305.74 L205.26,305.72 L205.55,305.67 L205.84,305.56
		L206.13,305.48 L206.42,305.16 L206.71,304.95 L206.99,304.80 L207.28,304.62 L207.57,304.61 L207.86,304.56 L208.15,304.31
		L208.44,304.11 L208.73,303.97 L209.02,303.96 L209.31,303.78 L209.60,303.77 L209.89,303.58 L210.18,303.54 L210.46,303.19
		L210.75,303.06 L211.04,302.98 L211.33,302.83 L211.62,302.75 L211.91,302.74 L212.20,302.51 L212.49,302.05 L212.78,302.03
		L213.07,301.90 L213.36,301.76 L213.65,301.67 L213.93,301.65 L214.22,301.33 L214.51,301.33 L214.80,301.26 L215.09,301.23
		L215.38,301.18 L215.67,301.14 L215.96,301.05 L216.25,300.99 L216.54,300.99 L216.83,300.98 L217.12,300.97 L217.40,300.77
		L217.69,300.61 L217.98,300.61 L218.27,300.45 L218.56,300.05 L218.85,299.99 L219.14,299.97 L219.43,299.84 L219.72,299.83
		L220.01,299.64 L220.30,299.39 L220.59,299.36 L220.87,299.36 L221.16,299.27 L221.45,299.27 L221.74,299.13 L222.03,298.92
		L222.32,298.78 L222.61,298.75 L222.90,298.72 L223.19,298.65 L223.48,298.64 L223.77,298.38 L224.06,298.24 L224.34,298.12
		L224.63,297.65 L224.92,297.49 L225.21,297.12 L225.50,297.09 L225.79,296.99 L226.08,296.93 L226.37,296.85 L226.66,296.81
		L226.95,296.65 L227.24,296.51 L227.53,296.46 L227.81,295.95 L228.10,295.90 L228.39,295.89 L228.68,295.88 L228.97,295.54
		L229.26,295.46 L229.55,295.09 L229.84,294.97 L230.13,294.79 L230.42,294.79 L230.71,294.64 L231.00,294.53 L231.28,294.23
		L231.57,293.99 L231.86,293.97 L232.15,293.97 L232.44,293.42 L232.73,293.18 L233.02,293.16 L233.31,293.13 L233.60,292.74
		L233.89,292.59 L234.18,292.53 L234.47,292.44 L234.76,292.36 L235.04,292.24 L235.33,292.10 L235.62,291.75 L235.91,291.57
		L236.20,291.52 L236.49,291.51 L236.78,291.50 L237.07,291.47 L237.36,291.47 L237.65,291.46 L237.94,291.40 L238.22,291.39
		L238.51,291.33 L238.80,291.29 L239.09,291.21 L239.38,291.02 L239.67,290.86 L239.96,290.84 L240.25,290.83 L240.54,290.52
		L240.83,290.50 L241.12,290.32 L241.41,290.11 L241.70,290.07 L241.98,290.05 L242.27,289.99 L242.56,289.58 L242.85,289.52
		L243.14,289.47 L243.43,289.44 L243.72,289.39 L244.01,289.39 L244.30,289.34 L244.59,289.30 L244.88,289.28 L245.17,289.23
		L245.45,289.23 L245.74,289.23 L246.03,289.23 L246.32,289.23 L246.61,289.20 L246.90,289.17 L247.19,289.14 L247.48,289.06
		L247.77,288.99 L248.06,288.90 L248.35,288.88 L248.63,288.83 L248.92,288.78 L249.21,288.69 L249.50,288.52 L249.79,288.45
		L250.08,288.36 L250.37,288.26 L250.66,288.14 L250.95,287.97 L251.24,287.65 L251.53,287.62 L251.82,287.32 L252.11,287.27
		L252.39,287.15 L252.68,287.04 L252.97,286.84 L253.26,286.83 L253.55,286.81 L253.84,286.67 L254.13,286.50 L254.42,286.35
		L254.71,286.23 L255.00,286.17 L255.29,286.10 L255.58,286.03 L255.86,285.90 L256.15,285.78 L256.44,285.71 L256.73,285.67
		L257.02,285.59 L257.31,285.57 L257.60,285.51 L257.89,285.35 L258.18,285.30 L258.47,285.30 L258.76,285.29 L259.05,285.22
		L259.33,285.15 L259.62,285.12 L259.91,285.12 L260.20,284.85 L260.49,284.82 L260.78,284.82 L261.07,284.78 L261.36,284.73
		L261.65,284.73 L261.94,284.59 L262.23,284.36 L262.52,284.33 L262.80,284.24 L263.09,284.23 L263.38,284.22 L263.67,284.12
		L263.96,283.87 L264.25,283.69 L264.54,283.65 L264.83,283.54 L265.12,283.45 L265.41,283.43 L265.70,283.36 L265.99,283.26
		L266.27,283.23 L266.56,283.13 L266.85,283.04 L267.14,282.99 L267.43,282.93 L267.72,282.92 L268.01,282.78 L268.30,282.72
		L268.59,282.61 L268.88,282.45 L269.17,282.40 L269.46,282.37 L269.74,282.34 L270.03,282.31 L270.32,282.26 L270.61,282.20
		L270.90,282.11 L271.19,282.02 L271.48,281.91 L271.77,281.83 L272.06,281.83 L272.35,281.72 L272.64,281.56 L272.93,281.56
		L273.21,281.45 L273.50,281.45 L273.79,281.32 L274.08,281.31 L274.37,281.29 L274.66,281.24 L274.95,281.23 L275.24,281.23
		L275.53,281.22 L275.82,281.08 L276.11,280.94 L276.40,280.74 L276.68,280.70 L276.97,280.66 L277.26,280.62 L277.55,280.43
		L277.84,280.33 L278.13,280.30 L278.42,280.25 L278.71,280.24 L279.00,280.08 L279.29,280.07 L279.58,279.91 L279.87,279.78
		L280.15,279.78 L280.44,279.77 L280.73,279.56 L281.02,279.54 L281.31,279.27 L281.60,279.17 L281.89,279.09 L282.18,279.06
		L282.47,279.03 L282.76,279.02 L283.05,279.01 L283.34,278.93 L283.62,278.92 L283.91,278.91 L284.20,278.71 L284.49,278.71
		L284.78,278.65 L285.07,278.64 L285.36,278.62 L285.65,278.62 L285.94,278.61 L286.23,278.58 L286.52,278.58 L286.81,278.57
		L287.09,278.56 L287.38,278.54 L287.67,278.54 L287.96,278.54 L288.25,278.54 L288.54,278.54 L288.83,278.54 L289.12,278.54
		L289.41,278.54 L289.70,278.54 L289.99,278.54 L290.28,278.45 L290.57,278.31 L290.85,277.82 L291.14,277.82 L291.43,277.82
		L291.72,277.72 L292.01,277.72 L292.30,277.64 L292.59,277.51 L292.88,277.32 L293.17,277.23 L293.46,277.10 L293.75,277.00
		L294.03,276.90 L294.32,276.65 L294.61,276.62 L294.90,276.48 L295.19,276.45 L295.48,276.43 L295.77,276.33 L296.06,276.21
		L296.35,276.19 L296.64,276.07 L296.93,276.06 L297.22,276.01 L297.51,276.01 L297.79,275.93 L298.08,275.77 L298.37,275.69
		L298.66,275.61 L298.95,275.55 L299.24,275.51 L299.53,275.29 L299.82,275.21 L300.11,275.21 L300.40,274.80 L300.69,274.69
		L300.98,274.64 L301.26,274.60 L301.55,274.54 L301.84,274.53 L302.13,274.47 L302.42,274.19 L302.71,274.17 L303.00,274.04
		L303.29,273.84 L303.58,273.84 L303.87,273.56 L304.16,273.53 L304.45,273.47 L304.73,273.35 L305.02,273.31 L305.31,273.29
		L305.60,272.91 L305.89,272.78 L306.18,272.77 L306.47,272.76 L306.76,272.52 L307.05,272.51 L307.34,272.38 L307.63,272.23
		L307.92,272.06 L308.20,271.79 L308.49,271.71 L308.78,271.71 L309.07,271.68 L309.36,271.62 L309.65,271.33 L309.94,271.25
		L310.23,271.09 L310.52,271.05 L310.81,270.94 L311.10,270.62 L311.39,270.42 L311.67,270.26 L311.96,270.23 L312.25,270.13
		L312.54,269.96 L312.83,269.93 L313.12,269.77 L313.41,269.76 L313.70,269.73 L313.99,269.73 L314.28,269.69 L314.57,269.60
		L314.86,269.54 L315.14,269.50 L315.43,269.32 L315.72,269.11 L316.01,269.08 L316.30,269.07 L316.59,268.91 L316.88,268.83
		L317.17,268.72 L317.46,268.65 L317.75,268.62 L318.04,268.56 L318.33,268.51 L318.61,268.43 L318.90,268.35 L319.19,268.27
		L319.48,268.23 L319.77,268.22 L320.06,268.17 L320.35,268.02 L320.64,267.94 L320.93,267.81 L321.22,267.61 L321.51,267.49
		L321.80,267.27 L322.08,267.27 L322.37,267.15 L322.66,267.08 L322.95,267.08 L323.24,266.96 L323.53,266.68 L323.82,266.66
		L324.11,266.66 L324.40,266.57 L324.69,266.52 L324.98,266.48 L325.27,266.25 L325.55,266.16 L325.84,266.11 L326.13,266.10
		L326.42,266.09 L326.71,265.99 L327.00,265.97 L327.29,265.86 L327.58,265.85 L327.87,265.81 L328.16,265.79 L328.45,265.76
		L328.74,265.76 L329.02,265.75 L329.31,265.71 L329.60,265.71 L329.89,265.71 L330.18,265.71 L330.47,265.71 L330.76,265.71
		L331.05,265.71 L331.34,265.71 L331.63,265.59 L331.92,265.51 L332.21,265.49 L332.49,265.28 L332.78,265.22 L333.07,265.08
		L333.36,265.06 L333.65,265.02 L333.94,264.99 L334.23,264.86 L334.52,264.73 L334.81,264.71 L335.10,264.39 L335.39,264.36
		L335.68,264.34 L335.96,264.32 L336.25,264.32 L336.54,264.30 L336.83,264.29 L337.12,264.09 L337.41,264.05 L337.70,264.01
		L337.99,263.71 L338.28,263.67 L338.57,263.53 L338.86,263.49 L339.15,263.44 L339.43,263.44 L339.72,263.41 L340.01,263.38
		L340.30,263.20 L340.59,263.05 L340.88,263.01 L341.17,262.80 L341.46,262.78 L341.75,262.72 L342.04,262.71 L342.33,262.64
		L342.62,262.58 L342.90,262.09 L343.19,262.01 L343.48,262.00 L343.77,261.99 L344.06,261.98 L344.35,261.97 L344.64,261.89
		L344.93,261.80 L345.22,261.80 L345.51,261.70 L345.80,261.69 L346.09,261.61 L346.37,261.58 L346.66,261.49 L346.95,261.41
		L347.24,261.40 L347.53,261.34 L347.82,261.21 L348.11,261.14 L348.40,261.00 L348.69,260.98 L348.98,260.85 L349.27,260.75
		L349.56,260.56 L349.84,260.56 L350.13,260.43 L350.42,260.39 L350.71,260.18 L351.00,260.16 L351.29,259.94 L351.58,259.91
		L351.87,259.89 L352.16,259.88 L352.45,259.87 L352.74,259.86 L353.03,259.85 L353.32,259.83 L353.60,259.83 L353.89,259.82
		L354.18,259.68 L354.47,259.65 L354.76,259.61 L355.05,259.60 L355.34,259.47 L355.63,259.36 L355.92,259.36 L356.21,259.22
		L356.50,259.20 L356.78,259.14 L357.07,258.88 L357.36,258.82 L357.65,258.79 L357.94,258.67 L358.23,258.66 L358.52,258.57
		L358.81,258.57 L359.10,258.36 L359.39,258.21 L359.68,258.11 L359.97,258.04 L360.26,257.87 L360.54,257.83 L360.83,257.83
		L361.12,257.65 L361.41,257.47 L361.70,257.46 L361.99,257.44 L362.28,257.28 L362.57,257.18 L362.86,257.14 L363.15,257.12
		L363.44,256.87 L363.73,256.58 L364.01,256.57 L364.30,256.54 L364.59,256.29 L364.88,256.21 L365.17,256.21 L365.46,256.12
		L365.75,256.09 L366.04,255.89 L366.33,255.80 L366.62,255.70 L366.91,255.67 L367.20,255.66 L367.48,255.63 L367.77,255.63
		L368.06,255.53 L368.35,255.53 L368.64,255.53 L368.93,255.47 L369.22,255.45 L369.51,255.31 L369.80,255.29 L370.09,255.26
		L370.38,255.22 L370.67,255.11 L370.95,255.09 L371.24,255.08 L371.53,254.97 L371.82,254.96 L372.11,254.91 L372.40,254.90
		L372.69,254.85 L372.98,254.80 L373.27,254.48 L373.56,254.46 L373.85,254.40 L374.14,254.09 L374.42,254.01 L374.71,253.80
		L375.00,253.56 L375.29,253.34 L375.58,253.13 L375.87,253.08 L376.16,253.05 L376.45,253.05 L376.74,252.89 L377.03,252.81
		L377.32,252.81 L377.61,252.80 L377.89,252.74 L378.18,252.62 L378.47,252.58 L378.76,252.57 L379.05,252.54 L379.34,252.47
		L379.63,252.36 L379.92,252.15 L380.21,251.87 L380.50,251.85 L380.79,251.85 L381.08,251.79 L381.36,251.77 L381.65,251.74
		L381.94,251.61 L382.23,251.56 L382.52,251.50 L382.81,251.45 L383.10,251.35 L383.39,251.05 L383.68,250.98 L383.97,250.97
		L384.26,250.97 L384.55,250.79 L384.83,250.73 L385.12,250.72 L385.41,250.67 L385.70,250.62 L385.99,250.62 L386.28,250.60
		L386.57,250.55 L386.86,250.55 L387.15,250.45 L387.44,250.40 L387.73,250.35 L388.02,250.32 L388.30,250.32 L388.59,250.31
		L388.88,250.25 L389.17,250.18 L389.46,250.08 L389.75,249.94 L390.04,249.91 L390.33,249.83 L390.62,249.73 L390.91,249.70
		L391.20,249.58 L391.49,249.52 L391.77,249.39 L392.06,249.34 L392.35,249.22 L392.64,249.02 L392.93,248.96 L393.22,248.82
		L393.51,248.76 L393.80,248.75 L394.09,248.73 L394.38,248.64 L394.67,248.61 L394.96,248.59 L395.24,248.49 L395.53,248.38
		L395.82,248.37 L396.11,248.35 L396.40,248.28 L396.69,248.21 L396.98,248.18 L397.27,248.16 L397.56,248.06 L397.85,247.92
		L398.14,247.73 L398.43,247.73 L398.72,247.69 L399.00,247.68 L399.29,247.65 L399.58,247.50 L399.87,247.26 L400.16,247.20
		L400.45,247.19 L400.74,247.07 L401.03,247.01 L401.32,246.88 L401.61,246.81 L401.90,246.79 L402.18,246.66 L402.47,246.64
		L402.76,246.53 L403.05,246.52 L403.34,246.51 L403.63,246.46 L403.92,246.46 L404.21,246.21 L404.50,246.02 L404.79,246.02
		L405.08,245.92 L405.37,245.91 L405.65,245.89 L405.94,245.63 L406.23,245.45 L406.52,245.24 L406.81,245.17 L407.10,245.12
		L407.39,245.11 L407.68,245.10 L407.97,244.99 L408.26,244.85 L408.55,244.85 L408.84,244.81 L409.13,244.77 L409.41,244.75
		L409.70,244.68 L409.99,244.66 L410.28,244.58 L410.57,244.33 L410.86,244.26 L411.15,244.19 L411.44,244.18 L411.73,244.13
		L412.02,244.11 L412.31,244.09 L412.59,244.02 L412.88,244.00 L413.17,243.99 L413.46,243.88 L413.75,243.87 L414.04,243.71
		L414.33,243.64 L414.62,243.57 L414.91,243.30 L415.20,243.30 L415.49,243.28 L415.78,243.23 L416.07,243.13 L416.35,243.09
		L416.64,243.06 L416.93,243.03 L417.22,242.97 L417.51,242.81 L417.80,242.76 L418.09,242.68 L418.38,242.60 L418.67,242.57
		L418.96,242.55 L419.25,242.52 L419.54,242.45 L419.82,242.42 L420.11,242.39 L420.40,242.38 L420.69,242.37 L420.98,242.28
		L421.27,242.21 L421.56,242.09 L421.85,242.05 L422.14,242.01 L422.43,241.95 L422.72,241.80 L423.01,241.71 L423.29,241.67
		L423.58,241.61 L423.87,241.55 L424.16,241.55 L424.45,241.43 L424.74,241.42 L425.03,241.37 L425.32,241.32 L425.61,241.17
		L425.90,241.10 L426.19,241.10 L426.48,241.10 L426.76,241.02 L427.05,241.01 L427.34,240.96 L427.63,240.84 L427.92,240.68
		L428.21,240.64 L428.50,240.55 L428.79,240.54 L429.08,240.42 L429.37,240.33 L429.66,240.19 L429.95,240.14 L430.23,240.10
		L430.52,240.05 L430.81,239.99 L431.10,239.96 L431.39,239.80 L431.68,239.73 L431.97,239.73 L432.26,239.72 L432.55,239.60
		L432.84,239.54 L433.13,239.45 L433.42,239.34 L433.70,239.27 L433.99,239.26 L434.28,239.21 L434.57,239.17 L434.86,239.09
		L435.15,238.90 L435.44,238.82 L435.73,238.75 L436.02,238.52 L436.31,238.42 L436.60,238.42 L436.89,238.40 L437.17,238.40
		L437.46,238.38 L437.75,238.36 L438.04,238.34 L438.33,238.31 L438.62,238.30 L438.91,238.22 L439.20,238.20 L439.49,237.63
		L439.78,237.54 L440.07,237.43 L440.36,237.37 L440.64,237.34 L440.93,237.32 L441.22,237.17 L441.51,237.05 L441.80,236.91
		L442.09,236.76 L442.38,236.73 L442.67,236.53 L442.96,236.51 L443.25,236.47 L443.54,236.46 L443.83,236.43 L444.11,236.21
		L444.40,236.08 L444.69,236.06 L444.98,236.03 L445.27,235.90 L445.56,235.82 L445.85,235.63 L446.14,235.47 L446.43,235.46
		L446.72,235.45 L447.01,235.33 L447.30,235.24 L447.58,235.24 L447.87,235.11 L448.16,235.05 L448.45,234.76 L448.74,234.73
		L449.03,234.70 L449.32,234.58 L449.61,234.57 L449.90,234.51 L450.19,234.50 L450.48,234.31 L450.77,234.24 L451.05,234.16
		L451.34,234.13 L451.63,233.88 L451.92,233.80 L452.21,233.72 L452.50,233.61 L452.79,233.55 L453.08,233.46 L453.37,233.37
		L453.66,232.89 L453.95,232.81 L454.24,232.73 L454.53,232.44 L454.81,232.33 L455.10,232.28 L455.39,232.24 L455.68,232.14
		L455.97,231.82 L456.26,231.78 L456.55,231.75 L456.84,231.44 L457.13,231.42 L457.42,231.38 L457.71,231.23 L457.99,231.08
		L458.28,230.88 L458.57,230.88 L458.86,230.88 L459.15,230.80 L459.44,230.80 L459.73,230.79 L460.02,230.75 L460.31,230.72
		L460.60,230.61 L460.89,230.57 L461.18,230.53 L461.47,230.47 L461.75,230.47 L462.04,230.43 L462.33,230.43 L462.62,230.42
		L462.91,230.37 L463.20,230.28 L463.49,230.23 L463.78,230.17 L464.07,230.14 L464.36,230.04 L464.65,229.96 L464.94,229.88
		L465.22,229.61 L465.51,229.60 L465.80,229.58 L466.09,229.57 L466.38,229.48 L466.67,229.48 L466.96,229.38 L467.25,229.30
		L467.54,228.90 L467.83,228.90 L468.12,228.80 L468.40,228.71 L468.69,228.71 L468.98,228.65 L469.27,228.40 L469.56,228.24
		L469.85,228.14 L470.14,228.02 L470.43,227.73 L470.72,227.41 L471.01,227.10 L471.30,226.88 L471.59,226.81 L471.88,226.66
		L472.16,226.57 L472.45,226.55 L472.74,226.51 L473.03,226.10 L473.32,225.83 L473.61,225.82 L473.90,225.79 L474.19,225.76
		L474.48,225.57 L474.77,225.50 L475.06,225.32 L475.34,225.22 L475.63,225.12 L475.92,224.66 L476.21,224.63 L476.50,224.56
		L476.79,224.42 L477.08,224.41 L477.37,224.40 L477.66,224.26 L477.95,224.17 L478.24,223.95 L478.53,223.80 L478.82,223.68
		L479.10,223.62 L479.39,223.61 L479.68,223.60 L479.97,223.60 L480.26,223.58 L480.55,223.45 L480.84,223.21 L481.13,223.20
		L481.42,223.15 L481.71,223.13 L482.00,223.07 L482.29,223.02 L482.57,222.83 L482.86,222.65 L483.15,222.53 L483.44,222.50
		L483.73,222.48 L484.02,222.46 L484.31,222.20 L484.60,222.19 L484.89,222.15 L485.18,222.10 L485.47,221.91 L485.76,221.82
		L486.04,221.65 L486.33,221.57 L486.62,221.52 L486.91,221.44 L487.20,221.42 L487.49,221.36 L487.78,221.36 L488.07,221.24
		L488.36,221.24 L488.65,221.14 L488.94,220.96 L489.23,220.75 L489.51,220.71 L489.80,220.67 L490.09,220.37 L490.38,220.34
		L490.67,220.27 L490.96,220.27 L491.25,219.98 L491.54,219.81 L491.83,219.77 L492.12,219.76 L492.41,219.64 L492.70,219.62
		L492.98,219.30 L493.27,219.08 L493.56,218.68 L493.85,218.66 L494.14,218.58 L494.43,218.46 L494.72,218.33 L495.01,218.19
		L495.30,218.12 L495.59,218.08 L495.88,217.97 L496.17,217.92 L496.45,217.78 L496.74,217.07 L497.03,217.05 L497.32,217.01
		L497.61,216.85 L497.90,216.69 L498.19,216.69 L498.48,216.68 L498.77,216.65 L499.06,216.42 L499.35,216.37 L499.64,216.29
		L499.92,216.17 L500.21,216.11 L500.50,216.09 L500.79,216.05 L501.08,216.01 L501.37,215.92 L501.66,215.73 L501.95,215.57
		L502.24,215.56 L502.53,215.34 L502.82,214.94 L503.11,214.78 L503.39,214.71 L503.68,214.68 L503.97,214.44 L504.26,214.44
		L504.55,214.30 L504.84,214.20 L505.13,214.12 L505.42,214.01 L505.71,213.92 L506.00,213.81 L506.29,213.81 L506.58,213.53
		L506.86,213.50 L507.15,213.36 L507.44,213.29 L507.73,213.25 L508.02,213.21 L508.31,213.01 L508.60,212.96 L508.89,212.96
		L509.18,212.86 L509.47,212.46 L509.76,212.39 L510.05,212.16 L510.34,211.86 L510.62,211.77 L510.91,211.70 L511.20,211.53
		L511.49,211.33 L511.78,211.25 L512.07,211.03 L512.36,210.99 L512.65,210.81 L512.94,210.77 L513.23,210.70 L513.52,210.53
		L513.80,210.45 L514.09,210.41 L514.38,210.28 L514.67,210.15 L514.96,210.13 L515.25,210.12 L515.54,209.98 L515.83,209.78
		L516.12,209.72 L516.41,209.71 L516.70,209.36 L516.99,209.24 L517.28,209.00 L517.56,208.68 L517.85,208.65 L518.14,208.49
		L518.43,208.12 L518.72,207.37 L519.01,207.28 L519.30,206.79 L519.59,206.67 L519.88,206.66 L520.17,206.61 L520.46,206.35
		L520.74,206.28 L521.03,206.15 L521.32,206.12 L521.61,205.78 L521.90,205.60 L522.19,205.48 L522.48,205.29 L522.77,205.27
		L523.06,205.24 L523.35,205.20 L523.64,205.09 L523.93,204.96 L524.22,204.91 L524.50,204.54 L524.79,204.44 L525.08,204.41
		L525.37,204.09 L525.66,203.96 L525.95,203.72 L526.24,203.53 L526.53,203.46 L526.82,203.41 L527.11,202.97 L527.40,202.67
		L527.69,202.54 L527.97,202.53 L528.26,201.90 L528.55,200.99 L528.84,200.97 L529.13,200.83 L529.42,200.81 L529.71,200.58
		L530.00,200.39 L530.29,199.68 L530.58,199.65 L530.87,199.15 L531.16,199.13 L531.44,198.73 L531.73,198.66 L532.02,198.44
		L532.31,198.28 L532.60,198.06 L532.89,197.93 L533.18,197.38 L533.47,196.34 L533.76,196.08 L534.05,195.85 L534.34,195.61
		L534.63,195.53 L534.91,195.29 L535.20,195.16 L535.49,195.09 L535.78,195.02 L536.07,195.01 L536.36,194.79 L536.65,194.75
		L536.94,194.08 L537.23,193.18 L537.52,193.16 L537.81,191.99 L538.10,191.91 L538.38,191.48 L538.67,191.11 L538.96,191.05
		L539.25,190.86 L539.54,190.64 L539.83,190.58 L540.12,190.38 L540.41,190.09 L540.70,190.06 L540.99,189.94 L541.28,189.63
		L541.57,189.49 L541.85,189.42 L542.14,188.68 L542.43,188.63 L542.72,188.17 L543.01,187.76 L543.30,187.53 L543.59,186.93
		L543.88,186.36 L544.17,186.29 L544.46,186.15 L544.75,185.92 L545.04,185.91 L545.32,185.41 L545.61,185.31 L545.90,184.86
		L546.19,184.68 L546.48,184.46 L546.77,184.33 L547.06,184.24 L547.35,183.91 L547.64,183.75 L547.93,183.36 L548.22,183.34
		L548.51,182.77 L548.79,182.25 L549.08,181.55 L549.37,181.39 L549.66,181.27 L549.95,181.17 L550.24,181.00 L550.53,180.91
		L550.82,180.83 L551.11,180.80 L551.40,180.59 L551.69,180.44 L551.98,179.57 L552.26,179.07 L552.55,178.89 L552.84,178.75
		L553.13,178.58 L553.42,177.78 L553.71,177.13 L554.00,176.13 L554.29,176.08 L554.58,175.36 L554.87,174.62 L555.16,174.13
		L555.45,173.36 L555.73,173.11 L556.02,172.65 L556.31,172.06 L556.60,171.90 L556.89,171.73 L557.18,171.08 L557.47,169.98
		L557.76,169.47 L558.05,168.64 L558.34,168.07 L558.63,167.98 L558.92,167.96 L559.20,167.78 L559.49,167.08 L559.78,166.41
		L560.07,166.30 L560.36,166.16 L560.65,165.87 L560.94,165.79 L561.23,165.62 L561.52,164.97 L561.81,164.96 L562.10,164.69
		L562.39,164.46 L562.67,163.95 L562.96,163.67 L563.25,162.53 L563.54,162.42 L563.83,161.38 L564.12,161.02 L564.41,160.28
		L564.70,160.20 L564.99,160.11 L565.28,158.23 L565.57,156.27 L565.86,155.53 L566.14,154.00 L566.43,153.75 L566.72,151.64
		L567.01,150.71 L567.30,150.36 L567.59,149.54 L567.88,148.91 L568.17,147.12 L568.46,146.72 L568.75,146.20 L569.04,143.44
		L569.33,142.57 L569.61,142.33 L569.90,140.11 L570.19,140.07 L570.48,139.98 L570.77,138.91 L571.06,129.55 L571.35,124.39
		L571.64,124.21 L571.93,119.41 L572.22,115.66 L572.51,114.37 L572.80,111.18 L573.09,109.95 L573.37,107.98 L573.66,98.15
		L573.95,93.62 L574.24,84.59 L574.53,76.90  '/></g>
	</g>
<g fill="none" color="white" stroke="rgb(148,   0, 211)" stroke-width="2.00" stroke-linecap="butt" stroke-linejoin="miter">
</g>
<g fill="none" color="black" stroke="currentColor" stroke-width="2.00" stroke-linecap="butt" stroke-linejoin="miter">
</g>
<g fill="none" color="black" stroke="black" stroke-width="1.00" stroke-linecap="butt" stroke-linejoin="miter">
</g>
<g fill="none" color="black" stroke="currentColor" stroke-width="1.00" stroke-linecap="butt" stroke-linejoin="miter">
	<path stroke='black'  d='M72.53,54.01 L72.53,406.84 L574.82,406.84 L574.82,54.01 L72.53,54.01 Z  '/></g>
<g fill="none" color="black" stroke="currentColor" stroke-width="1.00" stroke-linecap="butt" stroke-linejoin="miter">
	<g transform="translate(323.67,30.91)" stroke="none" fill="black" font-family="Arial" font-size="12.00"  text-anchor="middle">
		<text><tspan font-family="Arial" >Quantiles for profile</tspan></text>
	</g>
</g>
<g fill="none" color="black" stroke="currentColor" stroke-width="1.00" stroke-linecap="butt" stroke-linejoin="miter">
</g>
</g>
</svg>

